{
  "nameDe" : "Berlin-Schönefeld",
  "publicId" : "427",
  "networkId" : "",
  "location" : [ 13.5306, 52.3807 ],
  "locationShape" : {
    "type" : "Point",
    "coordinates" : [ 13.5306, 52.3807 ]
  },
  "height" : 46.0,
  "type" : "NKDZ_STATION",
  "history" : [ {
    "start" : "2008-11-17",
    "location" : {
      "type" : "Point",
      "coordinates" : [ 13.530609, 52.380698 ]
    },
    "height" : 46.0,
    "site" : "Die Station befindet sich im östlichen Teil des Flughafens Berlin-Schönefeld."
  }, {
    "start" : "1964-01-01",
    "end" : "2008-11-16",
    "location" : {
      "type" : "Point",
      "coordinates" : [ 13.530741, 52.38081 ]
    },
    "height" : 46.0,
    "site" : "Die Station befindet sich im östlichen Teil des Flughafens Berlin-Schönefeld."
  }, {
    "start" : "1961-01-01",
    "end" : "1963-12-31",
    "location" : {
      "type" : "Point",
      "coordinates" : [ 13.530741, 52.38081 ]
    },
    "height" : 46.0,
    "site" : ""
  }, {
    "start" : "1955-10-01",
    "end" : "1960-12-31",
    "location" : {
      "type" : "Point",
      "coordinates" : [ 13.530741, 52.38081 ]
    },
    "height" : 46.0,
    "site" : ""
  }, {
    "start" : "1955-07-01",
    "end" : "1955-09-30",
    "location" : {
      "type" : "Point",
      "coordinates" : [ 13.530741, 52.38081 ]
    },
    "height" : 46.0,
    "site" : ""
  } ],
  "instruments" : [ {
    "start" : "2012-07-20",
    "model" : "Feuchtesonde HMP45D",
    "method" : "Feuchtemessung, elektr.",
    "height" : 2.0,
    "parameterClassDe" : "Feuchte"
  }, {
    "start" : "1998-10-21",
    "end" : "2008-11-28",
    "model" : "HYGROMER MP300",
    "method" : "Feuchtemessung, elektr.",
    "height" : 2.0,
    "parameterClassDe" : "Feuchte"
  }, {
    "start" : "1992-01-31",
    "end" : "1998-10-22",
    "model" : "HYGROMER MP300",
    "method" : "Feuchtemessung, elektr.",
    "height" : 2.0,
    "parameterClassDe" : "Feuchte"
  }, {
    "start" : "1987-09-01",
    "end" : "1992-01-31",
    "model" : "Lithium_Chlorid-Taupunktfühler",
    "method" : "Feuchtemessung, elektr.",
    "height" : 2.0,
    "parameterClassDe" : "Feuchte"
  }, {
    "start" : "1987-09-01",
    "end" : "1992-01-31",
    "model" : "Elektrisches Aspirationspsychrometer-2 (EAP-2)",
    "method" : "Feuchtemessung, elektr.",
    "height" : 2.0,
    "parameterClassDe" : "Feuchte"
  }, {
    "start" : "1987-09-01",
    "end" : "1992-01-31",
    "model" : "HYGROMER MP300",
    "method" : "Feuchtemessung, elektr.",
    "height" : 2.0,
    "parameterClassDe" : "Feuchte"
  }, {
    "start" : "1968-01-22",
    "end" : "1987-08-31",
    "model" : "Lithium_Chlorid-Taupunktfühler",
    "method" : "Feuchtemessung, elektr.",
    "height" : 2.0,
    "parameterClassDe" : "Feuchte"
  }, {
    "start" : "1978-01-23",
    "end" : "1978-04-03",
    "model" : "Hygrograph nach Frankenberg",
    "method" : "Feuchteregistrieung, konv.",
    "height" : 2.0,
    "parameterClassDe" : "Feuchte"
  }, {
    "start" : "1975-09-24",
    "end" : "1977-08-16",
    "model" : "Hygrograph nach Frankenberg",
    "method" : "Feuchteregistrieung, konv.",
    "height" : 2.0,
    "parameterClassDe" : "Feuchte"
  }, {
    "start" : "1969-01-13",
    "end" : "1975-09-24",
    "model" : "Hygrograph nach Frankenberg",
    "method" : "Feuchteregistrieung, konv.",
    "height" : 2.0,
    "parameterClassDe" : "Feuchte"
  }, {
    "start" : "1968-10-17",
    "end" : "1969-01-13",
    "model" : "Hygrograph nach Frankenberg",
    "method" : "Feuchteregistrieung, konv.",
    "height" : 2.0,
    "parameterClassDe" : "Feuchte"
  }, {
    "start" : "1965-02-08",
    "end" : "1968-10-17",
    "model" : "Hygrograph nach Frankenberg",
    "method" : "Feuchteregistrieung, konv.",
    "height" : 2.0,
    "parameterClassDe" : "Feuchte"
  }, {
    "start" : "1963-05-04",
    "end" : "1965-02-08",
    "model" : "Hygrograph nach Frankenberg",
    "method" : "Feuchteregistrieung, konv.",
    "height" : 2.0,
    "parameterClassDe" : "Feuchte"
  }, {
    "start" : "1963-01-09",
    "end" : "1963-05-04",
    "model" : "Hygrograph nach Frankenberg",
    "method" : "Feuchteregistrieung, konv.",
    "height" : 2.0,
    "parameterClassDe" : "Feuchte"
  }, {
    "start" : "1955-09-20",
    "end" : "1963-01-09",
    "model" : "Hygrograph nach Frankenberg",
    "method" : "Feuchteregistrieung, konv.",
    "height" : 2.0,
    "parameterClassDe" : "Feuchte"
  }, {
    "start" : "1955-07-01",
    "end" : "1957-02-01",
    "model" : "Hygrometer",
    "method" : "Feuchtemessung, konv.",
    "height" : 2.0,
    "parameterClassDe" : "Feuchte"
  }, {
    "start" : "1995-10-17",
    "model" : "Barograph",
    "method" : "Luftdruckregistrierung, konv.",
    "height" : -999.0,
    "parameterClassDe" : "Luftdruck"
  }, {
    "start" : "2014-11-20",
    "model" : "Digitalbarometer PTB 330",
    "method" : "Luftdruckmessung, elektr.",
    "height" : 50.3,
    "parameterClassDe" : "Luftdruck"
  }, {
    "start" : "2011-10-12",
    "end" : "2014-11-20",
    "model" : "Luftdrucksensor Vaisala PTB 220",
    "method" : "Luftdruckmessung, elektr.",
    "height" : 50.3,
    "parameterClassDe" : "Luftdruck"
  }, {
    "start" : "1992-01-31",
    "end" : "1995-10-17",
    "model" : "Barograph",
    "method" : "Luftdruckregistrierung, konv.",
    "height" : -999.0,
    "parameterClassDe" : "Luftdruck"
  }, {
    "start" : "1987-09-01",
    "end" : "1992-01-31",
    "model" : "Absolutdruckwandler (ADMW)",
    "method" : "Luftdruckmessung, elektr.",
    "height" : -999.0,
    "parameterClassDe" : "Luftdruck"
  }, {
    "start" : "1972-05-03",
    "end" : "1992-01-31",
    "model" : "Barograph",
    "method" : "Luftdruckregistrierung, konv.",
    "height" : -999.0,
    "parameterClassDe" : "Luftdruck"
  }, {
    "start" : "1988-05-17",
    "end" : "1992-01-31",
    "model" : "Stationsbarometer",
    "method" : "Luftdruckmessung, konv.",
    "height" : -999.0,
    "parameterClassDe" : "Luftdruck"
  }, {
    "start" : "1965-11-01",
    "end" : "1992-01-31",
    "model" : "Barograph",
    "method" : "Luftdruckregistrierung, konv.",
    "height" : -999.0,
    "parameterClassDe" : "Luftdruck"
  }, {
    "start" : "1988-01-20",
    "end" : "1988-05-17",
    "model" : "Stationsbarometer",
    "method" : "Luftdruckmessung, konv.",
    "height" : -999.0,
    "parameterClassDe" : "Luftdruck"
  }, {
    "start" : "1987-12-18",
    "end" : "1988-01-20",
    "model" : "Stationsbarometer",
    "method" : "Luftdruckmessung, konv.",
    "height" : -999.0,
    "parameterClassDe" : "Luftdruck"
  }, {
    "start" : "1971-11-01",
    "end" : "1987-12-18",
    "model" : "Stationsbarometer",
    "method" : "Luftdruckmessung, konv.",
    "height" : -999.0,
    "parameterClassDe" : "Luftdruck"
  }, {
    "start" : "1964-01-16",
    "end" : "1972-05-03",
    "model" : "Barograph",
    "method" : "Luftdruckregistrierung, konv.",
    "height" : -999.0,
    "parameterClassDe" : "Luftdruck"
  }, {
    "start" : "1970-09-29",
    "end" : "1971-11-01",
    "model" : "Stationsbarometer",
    "method" : "Luftdruckmessung, konv.",
    "height" : -999.0,
    "parameterClassDe" : "Luftdruck"
  }, {
    "start" : "1969-04-25",
    "end" : "1970-09-29",
    "model" : "Stationsbarometer",
    "method" : "Luftdruckmessung, konv.",
    "height" : -999.0,
    "parameterClassDe" : "Luftdruck"
  }, {
    "start" : "1964-01-16",
    "end" : "1969-04-25",
    "model" : "Stationsbarometer",
    "method" : "Luftdruckmessung, konv.",
    "height" : -999.0,
    "parameterClassDe" : "Luftdruck"
  }, {
    "start" : "1964-01-16",
    "end" : "1965-11-01",
    "model" : "Barograph",
    "method" : "Luftdruckregistrierung, konv.",
    "height" : -999.0,
    "parameterClassDe" : "Luftdruck"
  }, {
    "start" : "1961-01-01",
    "end" : "1964-01-16",
    "model" : "Stationsbarometer",
    "method" : "Luftdruckmessung, konv.",
    "height" : -999.0,
    "parameterClassDe" : "Luftdruck"
  }, {
    "start" : "1963-07-01",
    "end" : "1964-01-16",
    "model" : "Barograph",
    "method" : "Luftdruckregistrierung, konv.",
    "height" : -999.0,
    "parameterClassDe" : "Luftdruck"
  }, {
    "start" : "1955-07-26",
    "end" : "1964-01-16",
    "model" : "Barograph",
    "method" : "Luftdruckregistrierung, konv.",
    "height" : -999.0,
    "parameterClassDe" : "Luftdruck"
  }, {
    "start" : "1957-10-01",
    "end" : "1963-07-01",
    "model" : "Barograph",
    "method" : "Luftdruckregistrierung, konv.",
    "height" : -999.0,
    "parameterClassDe" : "Luftdruck"
  }, {
    "start" : "1958-05-01",
    "end" : "1961-01-01",
    "model" : "Stationsbarometer",
    "method" : "Luftdruckmessung, konv.",
    "height" : -999.0,
    "parameterClassDe" : "Luftdruck"
  }, {
    "start" : "1955-01-01",
    "end" : "1958-05-01",
    "model" : "Stationsbarometer",
    "method" : "Luftdruckmessung, konv.",
    "height" : -999.0,
    "parameterClassDe" : "Luftdruck"
  }, {
    "start" : "1955-10-01",
    "end" : "1957-10-01",
    "model" : "Barograph",
    "method" : "Luftdruckregistrierung, konv.",
    "height" : -999.0,
    "parameterClassDe" : "Luftdruck"
  }, {
    "start" : "1955-07-01",
    "end" : "1955-10-01",
    "model" : "Barograph",
    "method" : "Luftdruckregistrierung, konv.",
    "height" : -999.0,
    "parameterClassDe" : "Luftdruck"
  }, {
    "start" : "1955-07-05",
    "end" : "1955-10-01",
    "model" : "Stationsbarometer",
    "method" : "Luftdruckmessung, konv.",
    "height" : -999.0,
    "parameterClassDe" : "Luftdruck"
  }, {
    "start" : "1992-01-31",
    "model" : "Hellmann",
    "method" : "Niederschlagsmenge, konv.",
    "height" : 1.0,
    "parameterClassDe" : "Niederschlag"
  }, {
    "start" : "2018-04-06",
    "model" : "rain[e]H3",
    "method" : "Niederschlagsmenge, elektr.",
    "height" : 1.0,
    "parameterClassDe" : "Niederschlag"
  }, {
    "start" : "1955-07-01",
    "model" : "Schneepegel",
    "method" : "Schneehöhenmessung, manuell",
    "height" : -999.0,
    "parameterClassDe" : "Niederschlag"
  }, {
    "start" : "1998-08-03",
    "model" : "Schneesonde WS 43",
    "method" : "Wasseräquivalentmessung, manuell",
    "height" : -999.0,
    "parameterClassDe" : "Niederschlag"
  }, {
    "start" : "2008-11-27",
    "end" : "2018-04-06",
    "model" : "PLUVIO",
    "method" : "Niederschlagsmenge, elektr.",
    "height" : 1.0,
    "parameterClassDe" : "Niederschlag"
  }, {
    "start" : "2006-01-26",
    "end" : "2008-11-27",
    "model" : "NG 200",
    "method" : "Niederschlagsdauer, -menge, elektr.",
    "height" : 1.0,
    "parameterClassDe" : "Niederschlag"
  }, {
    "start" : "1992-01-31",
    "end" : "2008-11-27",
    "model" : "Niederschlags-Detektor",
    "method" : "Niederschlagsdauer, elektr.",
    "height" : 1.0,
    "parameterClassDe" : "Niederschlag"
  }, {
    "start" : "2004-09-26",
    "end" : "2006-01-20",
    "model" : "NG 200",
    "method" : "Niederschlagsdauer, -menge, elektr.",
    "height" : 1.0,
    "parameterClassDe" : "Niederschlag"
  }, {
    "start" : "2004-01-19",
    "end" : "2004-09-25",
    "model" : "NG 200",
    "method" : "Niederschlagsdauer, -menge, elektr.",
    "height" : 1.0,
    "parameterClassDe" : "Niederschlag"
  }, {
    "start" : "1992-01-31",
    "end" : "2004-01-16",
    "model" : "NG 200",
    "method" : "Niederschlagsdauer, -menge, elektr.",
    "height" : 1.0,
    "parameterClassDe" : "Niederschlag"
  }, {
    "start" : "1955-07-01",
    "end" : "1992-01-31",
    "model" : "Hellmann",
    "method" : "Niederschlagsmenge, konv.",
    "height" : 1.0,
    "parameterClassDe" : "Niederschlag"
  }, {
    "start" : "1991-04-04",
    "end" : "1992-01-31",
    "model" : "NG 200",
    "method" : "Niederschlagsdauer, -menge, elektr.",
    "height" : 1.0,
    "parameterClassDe" : "Niederschlag"
  }, {
    "start" : "1973-05-01",
    "end" : "1991-10-30",
    "model" : "Regenschreiber",
    "method" : "Niederschlagsregistrierung, konv.",
    "height" : 1.1,
    "parameterClassDe" : "Niederschlag"
  }, {
    "start" : "1987-09-01",
    "end" : "1991-04-04",
    "model" : "NG 200",
    "method" : "Niederschlagsdauer, -menge, elektr.",
    "height" : 1.0,
    "parameterClassDe" : "Niederschlag"
  }, {
    "start" : "2011-03-01",
    "model" : "SCAPP",
    "method" : "Strahlungsmessung, elektr.",
    "height" : 1.3,
    "parameterClassDe" : "Strahlung"
  }, {
    "start" : "2009-02-02",
    "end" : "2011-02-28",
    "model" : "SCAPP",
    "method" : "Strahlungsmessung, elektr.",
    "height" : 1.3,
    "parameterClassDe" : "Strahlung"
  }, {
    "start" : "2008-11-27",
    "end" : "2009-02-02",
    "model" : "SONIe Sonnenenergie-Sensor",
    "method" : "Sonnenscheindauer, elektr.",
    "height" : 9999.0,
    "parameterClassDe" : "Strahlung"
  }, {
    "start" : "1992-02-14",
    "end" : "2008-11-28",
    "model" : "Sonnenscheinschreiber nach Campbell-Stokes",
    "method" : "Sonnenscheinregistrierung, konv.",
    "height" : 1.3,
    "parameterClassDe" : "Strahlung"
  }, {
    "start" : "2006-07-25",
    "end" : "2008-11-27",
    "model" : "SONIe Sonnenenergie-Sensor",
    "method" : "Sonnenscheindauer, elektr.",
    "height" : 1.3,
    "parameterClassDe" : "Strahlung"
  }, {
    "start" : "2004-08-19",
    "end" : "2006-07-23",
    "model" : "SONIe Sonnenenergie-Sensor",
    "method" : "Sonnenscheindauer, elektr.",
    "height" : 1.3,
    "parameterClassDe" : "Strahlung"
  }, {
    "start" : "1992-02-14",
    "end" : "2004-08-18",
    "model" : "SONIe Sonnenenergie-Sensor",
    "method" : "Sonnenscheindauer, elektr.",
    "height" : 1.3,
    "parameterClassDe" : "Strahlung"
  }, {
    "start" : "1987-11-05",
    "model" : "PT 100 (Erdboden)",
    "method" : "Temperaturmessung, elektr.",
    "height" : -1.0,
    "parameterClassDe" : "Temperatur (Erdboden)"
  }, {
    "start" : "2006-10-11",
    "model" : "PT 100 (Erdboden)",
    "method" : "Temperaturmessung, elektr.",
    "height" : -0.1,
    "parameterClassDe" : "Temperatur (Erdboden)"
  }, {
    "start" : "2004-11-09",
    "model" : "PT 100 (Erdboden)",
    "method" : "Temperaturmessung, elektr.",
    "height" : -0.2,
    "parameterClassDe" : "Temperatur (Erdboden)"
  }, {
    "start" : "1987-11-05",
    "model" : "PT 100 (Erdboden)",
    "method" : "Temperaturmessung, elektr.",
    "height" : -0.5,
    "parameterClassDe" : "Temperatur (Erdboden)"
  }, {
    "start" : "1987-11-05",
    "model" : "PT 100 (Erdboden)",
    "method" : "Temperaturmessung, elektr.",
    "height" : -0.05,
    "parameterClassDe" : "Temperatur (Erdboden)"
  }, {
    "start" : "2006-09-10",
    "end" : "2006-10-09",
    "model" : "PT 100 (Erdboden)",
    "method" : "Temperaturmessung, elektr.",
    "height" : -0.1,
    "parameterClassDe" : "Temperatur (Erdboden)"
  }, {
    "start" : "1987-11-05",
    "end" : "2006-09-08",
    "model" : "PT 100 (Erdboden)",
    "method" : "Temperaturmessung, elektr.",
    "height" : -0.1,
    "parameterClassDe" : "Temperatur (Erdboden)"
  }, {
    "start" : "2003-12-05",
    "end" : "2004-11-03",
    "model" : "PT 100 (Erdboden)",
    "method" : "Temperaturmessung, elektr.",
    "height" : -0.2,
    "parameterClassDe" : "Temperatur (Erdboden)"
  }, {
    "start" : "1987-11-05",
    "end" : "2003-12-04",
    "model" : "PT 100 (Erdboden)",
    "method" : "Temperaturmessung, elektr.",
    "height" : -0.2,
    "parameterClassDe" : "Temperatur (Erdboden)"
  }, {
    "start" : "1987-09-01",
    "model" : "PT 100 (Luft)",
    "method" : "Temperaturmessung, elektr.",
    "height" : 2.0,
    "parameterClassDe" : "Temperatur (Luft)"
  }, {
    "start" : "1987-09-18",
    "model" : "PT 100 (Luft)",
    "method" : "Temperaturmessung, elektr.",
    "height" : 0.05,
    "parameterClassDe" : "Temperatur (Luft)"
  }, {
    "start" : "1955-07-15",
    "model" : "Minimumthermometer",
    "method" : "Temperaturmessung, konv.",
    "height" : 0.05,
    "parameterClassDe" : "Temperatur (Luft)"
  }, {
    "start" : "2008-11-27",
    "model" : "Bimetallthermometer",
    "method" : "Temperaturmessung, konv.",
    "height" : 2.0,
    "parameterClassDe" : "Temperatur (Luft)"
  }, {
    "start" : "2010-03-30",
    "model" : "Bimetallthermometer",
    "method" : "Temperaturmessung, konv.",
    "height" : 0.05,
    "parameterClassDe" : "Temperatur (Luft)"
  }, {
    "start" : "1968-01-01",
    "model" : "Psychrometerthermometer (feucht)",
    "method" : "Temperaturmessung, konv.",
    "height" : 2.0,
    "parameterClassDe" : "Temperatur (Luft)"
  }, {
    "start" : "1987-09-01",
    "end" : "2010-03-29",
    "model" : "PT 100 (Luft)",
    "method" : "Temperaturmessung, elektr.",
    "height" : 0.05,
    "parameterClassDe" : "Temperatur (Luft)"
  }, {
    "start" : "1987-09-01",
    "end" : "2008-11-27",
    "model" : "PT 100 (Luft)",
    "method" : "Temperaturmessung, elektr.",
    "height" : 2.0,
    "parameterClassDe" : "Temperatur (Luft)"
  }, {
    "start" : "1955-07-01",
    "end" : "2008-07-25",
    "model" : "Maximumthermometer",
    "method" : "Temperaturmessung, konv.",
    "height" : 2.0,
    "parameterClassDe" : "Temperatur (Luft)"
  }, {
    "start" : "1978-01-23",
    "end" : "1978-04-03",
    "model" : "Thermograph",
    "method" : "Temperaturmessung, konv.",
    "height" : 2.0,
    "parameterClassDe" : "Temperatur (Luft)"
  }, {
    "start" : "1973-05-01",
    "end" : "1977-08-16",
    "model" : "Thermograph",
    "method" : "Temperaturmessung, konv.",
    "height" : 2.0,
    "parameterClassDe" : "Temperatur (Luft)"
  }, {
    "start" : "1965-02-08",
    "end" : "1973-05-01",
    "model" : "Thermograph",
    "method" : "Temperaturmessung, konv.",
    "height" : 2.0,
    "parameterClassDe" : "Temperatur (Luft)"
  }, {
    "start" : "1955-07-01",
    "end" : "1968-01-01",
    "model" : "Psychrometerthermometer (feucht)",
    "method" : "Temperaturmessung, konv.",
    "height" : 2.0,
    "parameterClassDe" : "Temperatur (Luft)"
  }, {
    "start" : "1955-09-20",
    "end" : "1965-02-08",
    "model" : "Thermograph",
    "method" : "Temperaturmessung, konv.",
    "height" : 2.0,
    "parameterClassDe" : "Temperatur (Luft)"
  }, {
    "start" : "2005-12-21",
    "model" : "Thermohygrograph",
    "method" : "Temperatur- und Feuchtereg., konv.",
    "height" : 2.0,
    "parameterClassDe" : "Temperatur / Feuchte"
  }, {
    "start" : "2002-03-11",
    "end" : "2005-12-21",
    "model" : "Thermohygrograph",
    "method" : "Temperatur- und Feuchtereg., konv.",
    "height" : 2.0,
    "parameterClassDe" : "Temperatur / Feuchte"
  }, {
    "start" : "1992-10-01",
    "end" : "2002-03-11",
    "model" : "Thermohygrograph",
    "method" : "Temperatur- und Feuchtereg., konv.",
    "height" : 2.0,
    "parameterClassDe" : "Temperatur / Feuchte"
  }, {
    "start" : "1992-06-23",
    "end" : "1992-10-01",
    "model" : "Thermohygrograph",
    "method" : "Temperatur- und Feuchtereg., konv.",
    "height" : 2.0,
    "parameterClassDe" : "Temperatur / Feuchte"
  }, {
    "start" : "1991-11-12",
    "end" : "1992-06-23",
    "model" : "Thermohygrograph",
    "method" : "Temperatur- und Feuchtereg., konv.",
    "height" : 2.0,
    "parameterClassDe" : "Temperatur / Feuchte"
  }, {
    "start" : "1991-10-12",
    "end" : "1991-11-12",
    "model" : "Thermohygrograph",
    "method" : "Temperatur- und Feuchtereg., konv.",
    "height" : 2.0,
    "parameterClassDe" : "Temperatur / Feuchte"
  }, {
    "start" : "1991-01-12",
    "end" : "1991-11-12",
    "model" : "Thermohygrograph",
    "method" : "Temperatur- und Feuchtereg., konv.",
    "height" : 2.0,
    "parameterClassDe" : "Temperatur / Feuchte"
  }, {
    "start" : "1991-07-01",
    "end" : "1991-10-12",
    "model" : "Thermohygrograph",
    "method" : "Temperatur- und Feuchtereg., konv.",
    "height" : 2.0,
    "parameterClassDe" : "Temperatur / Feuchte"
  }, {
    "start" : "1981-08-26",
    "end" : "1991-07-01",
    "model" : "Thermohygrograph",
    "method" : "Temperatur- und Feuchtereg., konv.",
    "height" : 2.0,
    "parameterClassDe" : "Temperatur / Feuchte"
  }, {
    "start" : "1979-03-16",
    "end" : "1981-08-26",
    "model" : "Thermohygrograph",
    "method" : "Temperatur- und Feuchtereg., konv.",
    "height" : 2.0,
    "parameterClassDe" : "Temperatur / Feuchte"
  }, {
    "start" : "1978-04-03",
    "end" : "1979-03-16",
    "model" : "Thermohygrograph",
    "method" : "Temperatur- und Feuchtereg., konv.",
    "height" : 2.0,
    "parameterClassDe" : "Temperatur / Feuchte"
  }, {
    "start" : "1977-08-16",
    "end" : "1978-01-23",
    "model" : "Thermohygrograph",
    "method" : "Temperatur- und Feuchtereg., konv.",
    "height" : 2.0,
    "parameterClassDe" : "Temperatur / Feuchte"
  }, {
    "start" : "2005-09-09",
    "model" : "Windsensor Classic 4.3303",
    "method" : "Windmessung, elektr.",
    "height" : 10.0,
    "parameterClassDe" : "Wind"
  }, {
    "start" : "2013-05-22",
    "model" : "Windsensor Classic 4.3303",
    "method" : "Windmessung, elektr.",
    "height" : 10.0,
    "parameterClassDe" : "Wind"
  }, {
    "start" : "2013-05-22",
    "model" : "Windrichtungssensor Classic 4.3121",
    "method" : "Windmessung, elektr.",
    "height" : 10.0,
    "parameterClassDe" : "Wind"
  }, {
    "start" : "2011-07-12",
    "end" : "2013-05-22",
    "model" : "Windrichtungssensor Classic 4.3121",
    "method" : "Windmessung, elektr.",
    "height" : 10.0,
    "parameterClassDe" : "Wind"
  }, {
    "start" : "2009-10-22",
    "end" : "2011-07-12",
    "model" : "Windrichtungssensor Classic 4.3121",
    "method" : "Windmessung, elektr.",
    "height" : 10.0,
    "parameterClassDe" : "Wind"
  }, {
    "start" : "2009-10-09",
    "end" : "2009-10-22",
    "model" : "Windrichtungssensor Classic 4.3121",
    "method" : "Windmessung, elektr.",
    "height" : 10.0,
    "parameterClassDe" : "Wind"
  }, {
    "start" : "2007-10-08",
    "end" : "2009-10-09",
    "model" : "Windrichtungssensor Classic 4.3121",
    "method" : "Windmessung, elektr.",
    "height" : 10.0,
    "parameterClassDe" : "Wind"
  }, {
    "start" : "2005-09-09",
    "end" : "2007-10-08",
    "model" : "Windrichtungssensor Classic 4.3121",
    "method" : "Windmessung, elektr.",
    "height" : 10.0,
    "parameterClassDe" : "Wind"
  }, {
    "start" : "1992-01-31",
    "end" : "2005-09-09",
    "model" : "Windrichtungssensor Classic 4.3121",
    "method" : "Windmessung, elektr.",
    "height" : 10.0,
    "parameterClassDe" : "Wind"
  }, {
    "start" : "1992-01-31",
    "end" : "2005-09-09",
    "model" : "Windsensor Classic 4.3303",
    "method" : "Windmessung, elektr.",
    "height" : 10.0,
    "parameterClassDe" : "Wind"
  }, {
    "start" : "1989-05-30",
    "end" : "1992-01-31",
    "model" : "WMG 201",
    "method" : "Windmessung, elektr.",
    "height" : 8.0,
    "parameterClassDe" : "Wind"
  }, {
    "start" : "1975-06-25",
    "end" : "1992-01-31",
    "model" : "Windmessanlage Junkalor",
    "method" : "Windmessung, elektromechanisch",
    "height" : 10.9,
    "parameterClassDe" : "Wind"
  }, {
    "start" : "1987-06-16",
    "end" : "1992-01-31",
    "model" : "Windmessanlage Junkalor",
    "method" : "Windmessung, elektromechanisch",
    "height" : 10.9,
    "parameterClassDe" : "Wind"
  }, {
    "start" : "1987-09-01",
    "end" : "1989-05-30",
    "model" : "WMG 200",
    "method" : "Windmessung, elektr.",
    "height" : 7.0,
    "parameterClassDe" : "Wind"
  }, {
    "start" : "1975-04-01",
    "end" : "1987-06-15",
    "model" : "Windmessanlage Junkalor",
    "method" : "Windmessung, elektromechanisch",
    "height" : 10.9,
    "parameterClassDe" : "Wind"
  }, {
    "start" : "1975-04-07",
    "end" : "1987-06-15",
    "model" : "Windmessanlage Junkalor",
    "method" : "Windmessung, elektromechanisch",
    "height" : 10.9,
    "parameterClassDe" : "Wind"
  }, {
    "start" : "1969-02-13",
    "end" : "1975-04-07",
    "model" : "Universal-Windschreiber 90",
    "method" : "Windmessung, elektromechanisch",
    "height" : 10.9,
    "parameterClassDe" : "Wind"
  }, {
    "start" : "1964-01-16",
    "end" : "1969-02-13",
    "model" : "Universal-Windschreiber 90",
    "method" : "Windmessung, elektromechanisch",
    "height" : 10.9,
    "parameterClassDe" : "Wind"
  }, {
    "start" : "1963-11-05",
    "end" : "1964-01-16",
    "model" : "Universal-Windschreiber 90",
    "method" : "Windmessung, elektromechanisch",
    "height" : 19.4,
    "parameterClassDe" : "Wind"
  }, {
    "start" : "1963-03-14",
    "end" : "1963-11-05",
    "model" : "Universal-Windschreiber 90",
    "method" : "Windmessung, elektromechanisch",
    "height" : 18.5,
    "parameterClassDe" : "Wind"
  }, {
    "start" : "1961-12-22",
    "end" : "1963-03-14",
    "model" : "Universal-Windmesser 82",
    "method" : "Windmessung, mechanisch",
    "height" : 17.1,
    "parameterClassDe" : "Wind"
  }, {
    "start" : "1956-05-18",
    "end" : "1961-12-22",
    "model" : "Universal-Windmesser 82",
    "method" : "Windmessung, mechanisch",
    "height" : 17.1,
    "parameterClassDe" : "Wind"
  }, {
    "start" : "1955-07-01",
    "end" : "1956-05-18",
    "model" : "Wild'sche Windfahne",
    "method" : "Windmessung, mechanisch",
    "height" : 14.0,
    "parameterClassDe" : "Wind"
  } ],
  "mezas" : [ {
    "start" : "1975-07-01",
    "end" : "2018-11-06",
    "desc" : "P :LUFTDRUCK_REDUZIERT",
    "parameterClassDe" : "etc."
  }, {
    "start" : "1967-01-01",
    "end" : "2018-11-06",
    "desc" : "NM :BEDECKUNGSGRAD",
    "parameterClassDe" : "etc."
  }, {
    "start" : "1967-01-01",
    "end" : "2018-10-01",
    "desc" : "MO_N :BEDECKUNGSGRAD",
    "parameterClassDe" : "etc."
  }, {
    "start" : "1975-07-01",
    "end" : "2018-11-06",
    "desc" : "N :GESAMT_BEDECKUNGSGRAD",
    "parameterClassDe" : "etc."
  }, {
    "start" : "1967-01-01",
    "end" : "2017-01-01",
    "desc" : "JA_TX :LUFTTEMPERATUR_MAXIMUM",
    "parameterClassDe" : "etc."
  }, {
    "start" : "1967-01-01",
    "end" : "2018-10-01",
    "desc" : "MO_TX :LUFTTEMPERATUR_MAXIMUM",
    "parameterClassDe" : "etc."
  }, {
    "start" : "1991-11-01",
    "end" : "2018-09-30",
    "desc" : "TE10 :ERDBODENTEMPERATUR",
    "parameterClassDe" : "etc."
  }, {
    "start" : "1967-01-01",
    "end" : "2018-10-01",
    "desc" : "MO_VPM :DAMPFDRUCK",
    "parameterClassDe" : "etc."
  }, {
    "start" : "1967-01-01",
    "end" : "2018-11-06",
    "desc" : "VPM :DAMPFDRUCK",
    "parameterClassDe" : "etc."
  }, {
    "start" : "1967-01-01",
    "end" : "2017-01-01",
    "desc" : "JA_VPM :DAMPFDRUCK",
    "parameterClassDe" : "etc."
  }, {
    "start" : "1967-01-01",
    "end" : "2018-10-01",
    "desc" : "MO_EBM :ERDBODENMINIMUM",
    "parameterClassDe" : "etc."
  }, {
    "start" : "1967-01-01",
    "end" : "2017-01-01",
    "desc" : "JA_EBM :ERDBODENMINIMUM",
    "parameterClassDe" : "etc."
  }, {
    "start" : "1967-01-01",
    "end" : "2018-11-06",
    "desc" : "TGK :LUFTTEMP_AM_ERDB_MINIMUM",
    "parameterClassDe" : "etc."
  }, {
    "start" : "1969-01-01",
    "end" : "2018-10-01",
    "desc" : "MO_NSHK :NEUSCHNEEHOEHE",
    "parameterClassDe" : "etc."
  }, {
    "start" : "1967-01-01",
    "end" : "2018-10-01",
    "desc" : "MO_NSH :NEUSCHNEEHOEHE",
    "parameterClassDe" : "etc."
  }, {
    "start" : "1967-01-01",
    "end" : "2017-01-01",
    "desc" : "JA_NSH :NEUSCHNEEHOEHE",
    "parameterClassDe" : "etc."
  }, {
    "start" : "2001-04-03",
    "end" : "2018-11-07",
    "desc" : "WRTR :NIEDERSCHLAGSFORM",
    "parameterClassDe" : "etc."
  }, {
    "start" : "1995-09-01",
    "end" : "2018-11-07",
    "desc" : "RS_IND :NIEDERSCHLAG_GEFALLEN_IND",
    "parameterClassDe" : "etc."
  }, {
    "start" : "1967-01-01",
    "end" : "2018-11-06",
    "desc" : "RSKF :NIEDERSCHLAGSHOEHE_IND",
    "parameterClassDe" : "etc."
  }, {
    "start" : "1967-01-01",
    "end" : "2018-11-06",
    "desc" : "RSF :NIEDERSCHLAGSHOEHE_IND",
    "parameterClassDe" : "etc."
  }, {
    "start" : "1967-01-01",
    "end" : "2017-01-01",
    "desc" : "JA_TN :LUFTTEMPERATUR_MINIMUM",
    "parameterClassDe" : "etc."
  }, {
    "start" : "1967-01-01",
    "end" : "2018-10-01",
    "desc" : "MO_TN :LUFTTEMPERATUR_MINIMUM",
    "parameterClassDe" : "etc."
  }, {
    "start" : "1973-01-05",
    "end" : "2018-11-06",
    "desc" : "FX :WINDSPITZE_MAXIMUM",
    "parameterClassDe" : "etc."
  }, {
    "start" : "1967-01-01",
    "end" : "2018-11-06",
    "desc" : "FXK :WINDSPITZE_MAXIMUM",
    "parameterClassDe" : "etc."
  }, {
    "start" : "1967-01-01",
    "end" : "2018-11-06",
    "desc" : "UPM :REL_FEUCHTE",
    "parameterClassDe" : "Feuchte"
  }, {
    "start" : "1973-01-01",
    "end" : "2018-11-06",
    "desc" : "RF_TU :REL_FEUCHTE",
    "parameterClassDe" : "Feuchte"
  }, {
    "start" : "1991-05-15",
    "end" : "2018-11-06",
    "desc" : "UR :REL_FEUCHTE_REGISTRIERUNG",
    "parameterClassDe" : "Feuchte"
  }, {
    "start" : "1979-05-09",
    "end" : "2018-11-06",
    "desc" : "UU :REL_FEUCHTE",
    "parameterClassDe" : "Feuchte"
  }, {
    "start" : "1967-01-01",
    "end" : "2017-01-01",
    "desc" : "JA_RF :REL_FEUCHTE",
    "parameterClassDe" : "Feuchte"
  }, {
    "start" : "1967-01-01",
    "end" : "2018-10-01",
    "desc" : "MO_RF :REL_FEUCHTE",
    "parameterClassDe" : "Feuchte"
  }, {
    "start" : "1975-07-01",
    "end" : "2018-11-06",
    "desc" : "TD :TAUPUNKTTEMPERATUR",
    "parameterClassDe" : "Feuchte"
  }, {
    "start" : "1967-01-01",
    "end" : "2018-11-06",
    "desc" : "PM :LUFTDRUCK_STATIONSHOEHE",
    "parameterClassDe" : "Luftdruck"
  }, {
    "start" : "1967-01-01",
    "end" : "2018-10-01",
    "desc" : "MO_P0 :LUFTDRUCK_STATIONSHOEHE",
    "parameterClassDe" : "Luftdruck"
  }, {
    "start" : "1967-01-01",
    "end" : "2017-01-01",
    "desc" : "JA_P0 :LUFTDRUCK_STATIONSHOEHE",
    "parameterClassDe" : "Luftdruck"
  }, {
    "start" : "1991-02-19",
    "end" : "2018-11-06",
    "desc" : "P0 :LUFTDRUCK_STATIONSHOEHE",
    "parameterClassDe" : "Luftdruck"
  }, {
    "start" : "1969-01-01",
    "end" : "2018-10-01",
    "desc" : "MO_SH :SCHNEEHOEHE",
    "parameterClassDe" : "Niederschlag"
  }, {
    "start" : "1991-05-26",
    "end" : "2001-03-27",
    "desc" : "ASH :HOEHE_AUSGESTOCHENER_SCHNEE",
    "parameterClassDe" : "Niederschlag"
  }, {
    "start" : "1991-01-01",
    "end" : "2018-11-06",
    "desc" : "SH :SCHNEEHOEHE",
    "parameterClassDe" : "Niederschlag"
  }, {
    "start" : "1969-01-01",
    "end" : "2018-11-06",
    "desc" : "SH_TAG :SCHNEEHOEHE",
    "parameterClassDe" : "Niederschlag"
  }, {
    "start" : "1967-01-01",
    "end" : "2017-01-01",
    "desc" : "JA_SH_S :SCHNEEHOEHE",
    "parameterClassDe" : "Niederschlag"
  }, {
    "start" : "1969-01-01",
    "end" : "2018-11-06",
    "desc" : "SHK_TAG :SCHNEEHOEHE",
    "parameterClassDe" : "Niederschlag"
  }, {
    "start" : "1967-01-01",
    "end" : "2018-10-01",
    "desc" : "MO_SHK :SCHNEEHOEHE",
    "parameterClassDe" : "Niederschlag"
  }, {
    "start" : "1967-01-01",
    "end" : "2018-10-01",
    "desc" : "MO_SH_S :SCHNEEHOEHE",
    "parameterClassDe" : "Niederschlag"
  }, {
    "start" : "1969-01-01",
    "end" : "2017-01-01",
    "desc" : "JA_SH :SCHNEEHOEHE",
    "parameterClassDe" : "Niederschlag"
  }, {
    "start" : "1967-01-01",
    "end" : "2018-11-06",
    "desc" : "RSK :NIEDERSCHLAGSHOEHE",
    "parameterClassDe" : "Niederschlag"
  }, {
    "start" : "1967-01-01",
    "end" : "2018-11-06",
    "desc" : "RS :NIEDERSCHLAGSHOEHE",
    "parameterClassDe" : "Niederschlag"
  }, {
    "start" : "1967-01-01",
    "end" : "2018-10-01",
    "desc" : "MO_RR :NIEDERSCHLAGSHOEHE",
    "parameterClassDe" : "Niederschlag"
  }, {
    "start" : "1995-09-01",
    "end" : "2018-11-07",
    "desc" : "R1 :NIEDERSCHLAGSHOEHE",
    "parameterClassDe" : "Niederschlag"
  }, {
    "start" : "1967-01-01",
    "end" : "2017-01-01",
    "desc" : "JA_RR :NIEDERSCHLAGSHOEHE",
    "parameterClassDe" : "Niederschlag"
  }, {
    "start" : "1998-12-08",
    "end" : "2017-02-03",
    "desc" : "RW :WASSERAEQUIV_PRO_CM",
    "parameterClassDe" : "Niederschlag"
  }, {
    "start" : "1991-05-26",
    "end" : "2001-03-27",
    "desc" : "WAAS :WASSERAEQUIV_SCHNEE",
    "parameterClassDe" : "Niederschlag"
  }, {
    "start" : "2009-02-04",
    "end" : "2018-11-06",
    "desc" : "FD :DIF_HIMMELSSTRAHLUNG_JOULE",
    "parameterClassDe" : "Strahlung"
  }, {
    "start" : "1992-02-19",
    "end" : "2018-11-06",
    "desc" : "SD :SONNENSCHEINDAUER",
    "parameterClassDe" : "Strahlung"
  }, {
    "start" : "1994-01-01",
    "end" : "2017-01-01",
    "desc" : "JA_SD_S :SONNENSCHEINDAUER",
    "parameterClassDe" : "Strahlung"
  }, {
    "start" : "1994-01-01",
    "end" : "2017-01-01",
    "desc" : "JA_SD :SONNENSCHEINDAUER",
    "parameterClassDe" : "Strahlung"
  }, {
    "start" : "1992-03-01",
    "end" : "2018-10-01",
    "desc" : "MO_SD_S :SONNENSCHEINDAUER",
    "parameterClassDe" : "Strahlung"
  }, {
    "start" : "1992-03-01",
    "end" : "2018-10-01",
    "desc" : "MO_SD :SONNENSCHEINDAUER",
    "parameterClassDe" : "Strahlung"
  }, {
    "start" : "1992-02-14",
    "end" : "2018-11-06",
    "desc" : "SD_SY :SONNENSCHEINDAUER",
    "parameterClassDe" : "Strahlung"
  }, {
    "start" : "1992-03-01",
    "end" : "2018-11-06",
    "desc" : "SDK :SONNENSCHEINDAUER",
    "parameterClassDe" : "Strahlung"
  }, {
    "start" : "2009-02-04",
    "end" : "2018-11-06",
    "desc" : "FG :GLOBALSTRAHLUNG_JOULE",
    "parameterClassDe" : "Strahlung"
  }, {
    "start" : "1991-11-01",
    "end" : "2018-11-06",
    "desc" : "TT_ERD :LUFTTEMP_AM_ERDB",
    "parameterClassDe" : "Temperatur (Erdboden)"
  }, {
    "start" : "1991-11-05",
    "end" : "2018-11-06",
    "desc" : "TE50M :ERDBODENTEMPERATUR",
    "parameterClassDe" : "Temperatur (Erdboden)"
  }, {
    "start" : "1991-11-01",
    "end" : "2018-09-30",
    "desc" : "TE50 :ERDBODENTEMPERATUR",
    "parameterClassDe" : "Temperatur (Erdboden)"
  }, {
    "start" : "1991-11-05",
    "end" : "2018-11-06",
    "desc" : "TE10M :ERDBODENTEMPERATUR",
    "parameterClassDe" : "Temperatur (Erdboden)"
  }, {
    "start" : "1992-05-04",
    "end" : "1992-05-04",
    "desc" : "TE02 :ERDBODENTEMPERATUR",
    "parameterClassDe" : "Temperatur (Erdboden)"
  }, {
    "start" : "1991-11-01",
    "end" : "2018-09-30",
    "desc" : "TE100 :ERDBODENTEMPERATUR",
    "parameterClassDe" : "Temperatur (Erdboden)"
  }, {
    "start" : "1991-11-05",
    "end" : "2018-11-06",
    "desc" : "TE20M :ERDBODENTEMPERATUR",
    "parameterClassDe" : "Temperatur (Erdboden)"
  }, {
    "start" : "1991-11-01",
    "end" : "2018-09-30",
    "desc" : "TE20 :ERDBODENTEMPERATUR",
    "parameterClassDe" : "Temperatur (Erdboden)"
  }, {
    "start" : "1991-11-05",
    "end" : "2018-11-06",
    "desc" : "TE05M :ERDBODENTEMPERATUR",
    "parameterClassDe" : "Temperatur (Erdboden)"
  }, {
    "start" : "1991-11-01",
    "end" : "2018-09-30",
    "desc" : "TE05 :ERDBODENTEMPERATUR",
    "parameterClassDe" : "Temperatur (Erdboden)"
  }, {
    "start" : "1967-01-01",
    "end" : "2018-11-06",
    "desc" : "TXK :LUFTTEMPERATUR_MAXIMUM",
    "parameterClassDe" : "Temperatur (Luft)"
  }, {
    "start" : "1957-01-01",
    "end" : "2017-01-01",
    "desc" : "JA_TT :LUFTTEMPERATUR",
    "parameterClassDe" : "Temperatur (Luft)"
  }, {
    "start" : "1973-01-01",
    "end" : "2018-11-06",
    "desc" : "TT_TU :LUFTTEMPERATUR",
    "parameterClassDe" : "Temperatur (Luft)"
  }, {
    "start" : "1975-07-01",
    "end" : "2018-11-06",
    "desc" : "TT :LUFTTEMPERATUR",
    "parameterClassDe" : "Temperatur (Luft)"
  }, {
    "start" : "1957-01-01",
    "end" : "2018-10-01",
    "desc" : "MO_TT :LUFTTEMPERATUR",
    "parameterClassDe" : "Temperatur (Luft)"
  }, {
    "start" : "1967-01-01",
    "end" : "2018-11-06",
    "desc" : "TMK :LUFTTEMPERATUR",
    "parameterClassDe" : "Temperatur (Luft)"
  }, {
    "start" : "1967-01-01",
    "end" : "2018-11-06",
    "desc" : "TNK :LUFTTEMPERATUR_MINIMUM",
    "parameterClassDe" : "Temperatur (Luft)"
  }, {
    "start" : "1967-01-01",
    "end" : "2018-11-06",
    "desc" : "UPM :REL_FEUCHTE",
    "parameterClassDe" : "Temperatur / Feuchte"
  }, {
    "start" : "1973-01-01",
    "end" : "2018-11-06",
    "desc" : "RF_TU :REL_FEUCHTE",
    "parameterClassDe" : "Temperatur / Feuchte"
  }, {
    "start" : "1991-05-15",
    "end" : "2018-11-06",
    "desc" : "UR :REL_FEUCHTE_REGISTRIERUNG",
    "parameterClassDe" : "Temperatur / Feuchte"
  }, {
    "start" : "1979-05-09",
    "end" : "2018-11-06",
    "desc" : "UU :REL_FEUCHTE",
    "parameterClassDe" : "Temperatur / Feuchte"
  }, {
    "start" : "1967-01-01",
    "end" : "2017-01-01",
    "desc" : "JA_RF :REL_FEUCHTE",
    "parameterClassDe" : "Temperatur / Feuchte"
  }, {
    "start" : "1967-01-01",
    "end" : "2018-10-01",
    "desc" : "MO_RF :REL_FEUCHTE",
    "parameterClassDe" : "Temperatur / Feuchte"
  }, {
    "start" : "1957-01-01",
    "end" : "2017-01-01",
    "desc" : "JA_TT :LUFTTEMPERATUR",
    "parameterClassDe" : "Temperatur / Feuchte"
  }, {
    "start" : "1973-01-01",
    "end" : "2018-11-06",
    "desc" : "TT_TU :LUFTTEMPERATUR",
    "parameterClassDe" : "Temperatur / Feuchte"
  }, {
    "start" : "1975-07-01",
    "end" : "2018-11-06",
    "desc" : "TT :LUFTTEMPERATUR",
    "parameterClassDe" : "Temperatur / Feuchte"
  }, {
    "start" : "1957-01-01",
    "end" : "2018-10-01",
    "desc" : "MO_TT :LUFTTEMPERATUR",
    "parameterClassDe" : "Temperatur / Feuchte"
  }, {
    "start" : "1967-01-01",
    "end" : "2018-11-06",
    "desc" : "TMK :LUFTTEMPERATUR",
    "parameterClassDe" : "Temperatur / Feuchte"
  }, {
    "start" : "1975-07-01",
    "end" : "2018-11-06",
    "desc" : "DD :WINDRICHTUNG",
    "parameterClassDe" : "Wind"
  }, {
    "start" : "1973-01-01",
    "end" : "2018-11-06",
    "desc" : "D :WINDRICHTUNG",
    "parameterClassDe" : "Wind"
  }, {
    "start" : "1973-01-01",
    "end" : "2018-11-06",
    "desc" : "F :WINDGESCHWINDIGKEIT",
    "parameterClassDe" : "Wind"
  }, {
    "start" : "1973-01-01",
    "end" : "2018-11-06",
    "desc" : "FM :WINDGESCHWINDIGKEIT",
    "parameterClassDe" : "Wind"
  }, {
    "start" : "1975-07-01",
    "end" : "2018-11-06",
    "desc" : "FF :WINDGESCHWINDIGKEIT",
    "parameterClassDe" : "Wind"
  }, {
    "start" : "1967-01-01",
    "end" : "2018-10-01",
    "desc" : "MO_FK :WINDSTAERKE",
    "parameterClassDe" : "Wind"
  }, {
    "start" : "1967-01-01",
    "end" : "2017-01-01",
    "desc" : "JA_FK :WINDSTAERKE",
    "parameterClassDe" : "Wind"
  }, {
    "start" : "1967-01-01",
    "end" : "2018-11-06",
    "desc" : "FMK :WINDSTAERKE",
    "parameterClassDe" : "Wind"
  } ]
}