Stations_id; Stationshoehe; Geogr.Breite; Geogr.Laenge; von_datum; bis_datum; Stationsname;
3379;515.0;48.1631;11.5429;19540528;;München-Stadt
3137;195.0;49.9656;8.2139;18630101;;Mainz-Lerchenberg (ZDF)
1270;316.0;50.9829;10.9608;19460401;;Erfurt-Weimar
3987;81.0;52.3813;13.0622;19460101;;Potsdam
691;4.0;53.045;8.7979;17960101;;Bremen
3126;76.0;52.1029;11.5827;18810101;;Magdeburg
1975;11.0;53.6332;9.9881;19461101;;Hamburg-Fuhlsbüttel
4928;314.0;48.8282;9.2;19570101;;Stuttgart (Schnarrenberg)
2564;27.0;54.3761;10.1433;19680101;;Kiel-Holtenau
427;46.0;52.3807;13.5306;19550701;;Berlin-Schönefeld
2014;55.0;52.4644;9.6779;18560101;;Hannover
6217;190.0;49.2406;6.9351;20010401;;Saarbrücken-Burbach
5541;263.0;50.132;8.317;19870601;;Wiesbaden-Auringen
1051;119.0;51.024;13.7737;18830101;;Dresden-Strehlen
1078;37.0;51.296;6.7686;19490423;;Düsseldorf
4625;59.0;53.6425;11.3872;18870801;;Schwerin
