{
  "nameDe" : "München-Stadt",
  "publicId" : "3379",
  "networkId" : "",
  "location" : [ 11.5429, 48.1631 ],
  "locationShape" : {
    "type" : "Point",
    "coordinates" : [ 11.5429, 48.1631 ]
  },
  "height" : 515.0,
  "type" : "NKDZ_STATION",
  "history" : [ {
    "start" : "1997-07-08",
    "location" : {
      "type" : "Point",
      "coordinates" : [ 11.542922, 48.163142 ]
    },
    "height" : 515.2,
    "site" : "Die Station ist im Gebäude der Niederlassung München untergebracht, sie liegt im Stadtbezirk München-Neuhausen, 4 km nordwestlich der Stadtmitte."
  }, {
    "start" : "1954-05-28",
    "end" : "1997-07-07",
    "location" : {
      "type" : "Point",
      "coordinates" : [ 11.550815, 48.136279 ]
    },
    "height" : 535.0,
    "site" : ""
  } ],
  "instruments" : [ {
    "start" : "2017-10-10",
    "model" : "EE33",
    "method" : "Feuchtemessung, elektr.",
    "height" : 2.0,
    "parameterClassDe" : "Feuchte"
  }, {
    "start" : "2016-05-13",
    "end" : "2017-10-09",
    "model" : "EE33",
    "method" : "Feuchtemessung, elektr.",
    "height" : 2.0,
    "parameterClassDe" : "Feuchte"
  }, {
    "start" : "2016-01-14",
    "end" : "2016-05-12",
    "model" : "EE33",
    "method" : "Feuchtemessung, elektr.",
    "height" : 2.0,
    "parameterClassDe" : "Feuchte"
  }, {
    "start" : "2014-10-23",
    "end" : "2016-01-13",
    "model" : "EE33",
    "method" : "Feuchtemessung, elektr.",
    "height" : 2.0,
    "parameterClassDe" : "Feuchte"
  }, {
    "start" : "2013-10-24",
    "end" : "2014-10-22",
    "model" : "Feuchtesonde HMP45D",
    "method" : "Feuchtemessung, elektr.",
    "height" : 2.0,
    "parameterClassDe" : "Feuchte"
  }, {
    "start" : "2012-07-19",
    "end" : "2013-10-23",
    "model" : "Feuchtesonde HMP45D",
    "method" : "Feuchtemessung, elektr.",
    "height" : 2.0,
    "parameterClassDe" : "Feuchte"
  }, {
    "start" : "2011-06-09",
    "end" : "2012-07-18",
    "model" : "Feuchtesonde HMP45D",
    "method" : "Feuchtemessung, elektr.",
    "height" : 2.0,
    "parameterClassDe" : "Feuchte"
  }, {
    "start" : "2008-06-18",
    "end" : "2011-06-08",
    "model" : "Feuchtesonde HMP45D",
    "method" : "Feuchtemessung, elektr.",
    "height" : 2.0,
    "parameterClassDe" : "Feuchte"
  }, {
    "start" : "2008-02-20",
    "end" : "2008-06-17",
    "model" : "Feuchtesonde HMP45D",
    "method" : "Feuchtemessung, elektr.",
    "height" : 2.0,
    "parameterClassDe" : "Feuchte"
  }, {
    "start" : "2006-12-05",
    "end" : "2008-02-19",
    "model" : "Feuchtesonde HMP45D",
    "method" : "Feuchtemessung, elektr.",
    "height" : 2.0,
    "parameterClassDe" : "Feuchte"
  }, {
    "start" : "1997-07-08",
    "end" : "2006-12-04",
    "model" : "HYGROMER MP100",
    "method" : "Feuchtemessung, elektr.",
    "height" : 2.0,
    "parameterClassDe" : "Feuchte"
  }, {
    "start" : "1954-05-28",
    "end" : "1997-07-07",
    "model" : "Hygrograph nach Frankenberg",
    "method" : "Feuchteregistrieung, konv.",
    "height" : 2.0,
    "parameterClassDe" : "Feuchte"
  }, {
    "start" : "2018-05-02",
    "model" : "Digitalbarometer PTB 330",
    "method" : "Luftdruckmessung, elektr.",
    "height" : 525.6,
    "parameterClassDe" : "Luftdruck"
  }, {
    "start" : "2017-01-12",
    "end" : "2018-05-01",
    "model" : "Digitalbarometer PTB 330",
    "method" : "Luftdruckmessung, elektr.",
    "height" : 525.6,
    "parameterClassDe" : "Luftdruck"
  }, {
    "start" : "2015-02-24",
    "end" : "2017-01-11",
    "model" : "Digitalbarometer PTB 330",
    "method" : "Luftdruckmessung, elektr.",
    "height" : 525.6,
    "parameterClassDe" : "Luftdruck"
  }, {
    "start" : "2013-10-08",
    "end" : "2015-02-23",
    "model" : "Digitalbarometer AIR-DB",
    "method" : "Luftdruckmessung, elektr.",
    "height" : 525.6,
    "parameterClassDe" : "Luftdruck"
  }, {
    "start" : "2012-06-18",
    "end" : "2013-10-07",
    "model" : "Digitalbarometer AIR-DB",
    "method" : "Luftdruckmessung, elektr.",
    "height" : 525.6,
    "parameterClassDe" : "Luftdruck"
  }, {
    "start" : "2010-12-07",
    "end" : "2012-06-17",
    "model" : "Digitalbarometer AIR-DB",
    "method" : "Luftdruckmessung, elektr.",
    "height" : 525.6,
    "parameterClassDe" : "Luftdruck"
  }, {
    "start" : "2010-02-17",
    "end" : "2010-12-06",
    "model" : "Digitalbarometer AIR-DB",
    "method" : "Luftdruckmessung, elektr.",
    "height" : 525.6,
    "parameterClassDe" : "Luftdruck"
  }, {
    "start" : "2008-09-10",
    "end" : "2010-02-16",
    "model" : "Digitalbarometer AIR-DB",
    "method" : "Luftdruckmessung, elektr.",
    "height" : 525.6,
    "parameterClassDe" : "Luftdruck"
  }, {
    "start" : "2006-12-05",
    "end" : "2008-09-09",
    "model" : "Digitalbarometer AIR-DB",
    "method" : "Luftdruckmessung, elektr.",
    "height" : 525.6,
    "parameterClassDe" : "Luftdruck"
  }, {
    "start" : "1997-07-08",
    "end" : "2006-12-04",
    "model" : "Digitalbarometer AIR-DB",
    "method" : "Luftdruckmessung, elektr.",
    "height" : 525.6,
    "parameterClassDe" : "Luftdruck"
  }, {
    "start" : "1978-04-01",
    "end" : "1997-07-07",
    "model" : "Barograph",
    "method" : "Luftdruckregistrierung, konv.",
    "height" : -999.0,
    "parameterClassDe" : "Luftdruck"
  }, {
    "start" : "1954-05-28",
    "end" : "1997-07-07",
    "model" : "Barograph",
    "method" : "Luftdruckregistrierung, konv.",
    "height" : -999.0,
    "parameterClassDe" : "Luftdruck"
  }, {
    "start" : "1973-09-01",
    "end" : "1997-07-07",
    "model" : "Stationsbarometer",
    "method" : "Luftdruckmessung, konv.",
    "height" : 525.6,
    "parameterClassDe" : "Luftdruck"
  }, {
    "start" : "1971-02-01",
    "end" : "1973-08-31",
    "model" : "Stationsbarometer",
    "method" : "Luftdruckmessung, konv.",
    "height" : -999.0,
    "parameterClassDe" : "Luftdruck"
  }, {
    "start" : "1967-07-01",
    "end" : "1971-01-31",
    "model" : "Stationsbarometer",
    "method" : "Luftdruckmessung, konv.",
    "height" : -999.0,
    "parameterClassDe" : "Luftdruck"
  }, {
    "start" : "1954-05-28",
    "end" : "1967-06-30",
    "model" : "Stationsbarometer",
    "method" : "Luftdruckmessung, konv.",
    "height" : -999.0,
    "parameterClassDe" : "Luftdruck"
  }, {
    "start" : "2018-10-15",
    "model" : "rain[e]H3",
    "method" : "Niederschlagsmenge, elektr.",
    "height" : 1.5,
    "parameterClassDe" : "Niederschlag"
  }, {
    "start" : "2018-04-04",
    "model" : "Niederschlagswächter",
    "method" : "Niederschlagsdauer, elektr.",
    "height" : 1.5,
    "parameterClassDe" : "Niederschlag"
  }, {
    "start" : "2013-10-01",
    "model" : "Schneehöhensensor SHM 30",
    "method" : "Schneehöhenmessung, elektr.",
    "height" : 2.37,
    "parameterClassDe" : "Niederschlag"
  }, {
    "start" : "2018-10-15",
    "model" : "Laser Niederschlags Monitor TYP2",
    "method" : "Niederschlagsart, elektr.",
    "height" : 1.91,
    "parameterClassDe" : "Niederschlag"
  }, {
    "start" : "2018-03-26",
    "end" : "2018-10-14",
    "model" : "rain[e]H3",
    "method" : "Niederschlagsmenge, elektr.",
    "height" : 1.5,
    "parameterClassDe" : "Niederschlag"
  }, {
    "start" : "2007-02-21",
    "end" : "2018-10-14",
    "model" : "Laser Niederschlags Monitor",
    "method" : "Niederschlagsart, elektr.",
    "height" : 2.0,
    "parameterClassDe" : "Niederschlag"
  }, {
    "start" : "2016-06-30",
    "end" : "2018-04-03",
    "model" : "Niederschlagswächter",
    "method" : "Niederschlagsdauer, elektr.",
    "height" : 1.5,
    "parameterClassDe" : "Niederschlag"
  }, {
    "start" : "2017-10-13",
    "end" : "2018-03-25",
    "model" : "rain[e]H3",
    "method" : "Niederschlagsmenge, elektr.",
    "height" : 1.5,
    "parameterClassDe" : "Niederschlag"
  }, {
    "start" : "2013-10-08",
    "end" : "2017-10-12",
    "model" : "PLUVIO",
    "method" : "Niederschlagsmenge, elektr.",
    "height" : 1.5,
    "parameterClassDe" : "Niederschlag"
  }, {
    "start" : "2013-10-08",
    "end" : "2016-06-29",
    "model" : "Niederschlagswächter",
    "method" : "Niederschlagsdauer, elektr.",
    "height" : 1.0,
    "parameterClassDe" : "Niederschlag"
  }, {
    "start" : "2011-04-19",
    "end" : "2013-10-07",
    "model" : "Niederschlagswächter",
    "method" : "Niederschlagsdauer, elektr.",
    "height" : 1.0,
    "parameterClassDe" : "Niederschlag"
  }, {
    "start" : "2010-01-13",
    "end" : "2013-10-07",
    "model" : "PLUVIO",
    "method" : "Niederschlagsmenge, elektr.",
    "height" : 1.5,
    "parameterClassDe" : "Niederschlag"
  }, {
    "start" : "2012-10-01",
    "end" : "2013-04-30",
    "model" : "Ultraschall-Schneehöhenmesser SR50-G1",
    "method" : "Schneehöhenmessung, elektr.",
    "height" : 2.3,
    "parameterClassDe" : "Niederschlag"
  }, {
    "start" : "2011-10-04",
    "end" : "2012-05-01",
    "model" : "Ultraschall-Schneehöhenmesser SR50-G1",
    "method" : "Schneehöhenmessung, elektr.",
    "height" : 2.3,
    "parameterClassDe" : "Niederschlag"
  }, {
    "start" : "2011-10-01",
    "end" : "2011-10-03",
    "model" : "Ultraschall-Schneehöhenmesser SR50-G1",
    "method" : "Schneehöhenmessung, elektr.",
    "height" : 2.3,
    "parameterClassDe" : "Niederschlag"
  }, {
    "start" : "2010-10-01",
    "end" : "2011-04-30",
    "model" : "Ultraschall-Schneehöhenmesser SR50-G1",
    "method" : "Schneehöhenmessung, elektr.",
    "height" : 2.3,
    "parameterClassDe" : "Niederschlag"
  }, {
    "start" : "2007-01-25",
    "end" : "2011-04-18",
    "model" : "Niederschlagswächter",
    "method" : "Niederschlagsdauer, elektr.",
    "height" : 1.0,
    "parameterClassDe" : "Niederschlag"
  }, {
    "start" : "2009-10-01",
    "end" : "2010-05-04",
    "model" : "Ultraschall-Schneehöhenmesser SR50-G1",
    "method" : "Schneehöhenmessung, elektr.",
    "height" : 2.3,
    "parameterClassDe" : "Niederschlag"
  }, {
    "start" : "2008-12-10",
    "end" : "2010-01-12",
    "model" : "PLUVIO",
    "method" : "Niederschlagsmenge, elektr.",
    "height" : 1.5,
    "parameterClassDe" : "Niederschlag"
  }, {
    "start" : "2007-02-21",
    "end" : "2009-04-30",
    "model" : "Ultraschall-Schneehöhenmesser SR50-G1",
    "method" : "Schneehöhenmessung, elektr.",
    "height" : 2.3,
    "parameterClassDe" : "Niederschlag"
  }, {
    "start" : "2006-12-05",
    "end" : "2008-12-09",
    "model" : "PLUVIO",
    "method" : "Niederschlagsmenge, elektr.",
    "height" : 1.5,
    "parameterClassDe" : "Niederschlag"
  }, {
    "start" : "2006-12-05",
    "end" : "2007-01-24",
    "model" : "Niederschlags-Detektor",
    "method" : "Niederschlagsdauer, elektr.",
    "height" : 1.0,
    "parameterClassDe" : "Niederschlag"
  }, {
    "start" : "1997-07-08",
    "end" : "2006-12-04",
    "model" : "Niederschlags-Detektor",
    "method" : "Niederschlagsdauer, elektr.",
    "height" : 1.5,
    "parameterClassDe" : "Niederschlag"
  }, {
    "start" : "1997-07-08",
    "end" : "2006-12-04",
    "model" : "PLUVIO",
    "method" : "Niederschlagsmenge, elektr.",
    "height" : 1.5,
    "parameterClassDe" : "Niederschlag"
  }, {
    "start" : "1997-07-08",
    "end" : "2006-12-04",
    "model" : "Regenschreiber",
    "method" : "Niederschlagsregistrierung, konv.",
    "height" : 1.2,
    "parameterClassDe" : "Niederschlag"
  }, {
    "start" : "1972-09-01",
    "end" : "1997-07-07",
    "model" : "Regenschreiber",
    "method" : "Niederschlagsregistrierung, konv.",
    "height" : 1.3,
    "parameterClassDe" : "Niederschlag"
  }, {
    "start" : "1954-05-28",
    "end" : "1997-07-07",
    "model" : "Schneeausstecher",
    "method" : "Wasseräquivalentmessung, manuell",
    "height" : -999.0,
    "parameterClassDe" : "Niederschlag"
  }, {
    "start" : "1954-05-28",
    "end" : "1997-07-07",
    "model" : "Hellmann",
    "method" : "Niederschlagsmenge, konv.",
    "height" : 1.0,
    "parameterClassDe" : "Niederschlag"
  }, {
    "start" : "1954-06-01",
    "end" : "1972-08-31",
    "model" : "Regenschreiber",
    "method" : "Niederschlagsregistrierung, konv.",
    "height" : 1.3,
    "parameterClassDe" : "Niederschlag"
  }, {
    "start" : "2017-10-10",
    "model" : "SONIe Sonnenenergie-Sensor",
    "method" : "Sonnenscheindauer, elektr.",
    "height" : 20.6,
    "parameterClassDe" : "Strahlung"
  }, {
    "start" : "2016-04-29",
    "end" : "2017-10-09",
    "model" : "SONIe Sonnenenergie-Sensor",
    "method" : "Sonnenscheindauer, elektr.",
    "height" : 20.6,
    "parameterClassDe" : "Strahlung"
  }, {
    "start" : "2014-10-17",
    "end" : "2016-04-28",
    "model" : "SONIe Sonnenenergie-Sensor",
    "method" : "Sonnenscheindauer, elektr.",
    "height" : 20.6,
    "parameterClassDe" : "Strahlung"
  }, {
    "start" : "2013-12-20",
    "end" : "2014-10-16",
    "model" : "SONIe Sonnenenergie-Sensor",
    "method" : "Sonnenscheindauer, elektr.",
    "height" : 20.6,
    "parameterClassDe" : "Strahlung"
  }, {
    "start" : "2013-01-23",
    "end" : "2013-12-19",
    "model" : "SONIe Sonnenenergie-Sensor",
    "method" : "Sonnenscheindauer, elektr.",
    "height" : 20.6,
    "parameterClassDe" : "Strahlung"
  }, {
    "start" : "2012-06-18",
    "end" : "2013-01-22",
    "model" : "SONIe Sonnenenergie-Sensor",
    "method" : "Sonnenscheindauer, elektr.",
    "height" : 20.6,
    "parameterClassDe" : "Strahlung"
  }, {
    "start" : "2010-07-15",
    "end" : "2012-06-17",
    "model" : "SONIe Sonnenenergie-Sensor",
    "method" : "Sonnenscheindauer, elektr.",
    "height" : 20.6,
    "parameterClassDe" : "Strahlung"
  }, {
    "start" : "2010-02-17",
    "end" : "2010-07-14",
    "model" : "SONIe Sonnenenergie-Sensor",
    "method" : "Sonnenscheindauer, elektr.",
    "height" : 20.6,
    "parameterClassDe" : "Strahlung"
  }, {
    "start" : "2009-03-04",
    "end" : "2010-02-16",
    "model" : "SONIe Sonnenenergie-Sensor",
    "method" : "Sonnenscheindauer, elektr.",
    "height" : 20.6,
    "parameterClassDe" : "Strahlung"
  }, {
    "start" : "2008-03-12",
    "end" : "2009-03-03",
    "model" : "SONIe Sonnenenergie-Sensor",
    "method" : "Sonnenscheindauer, elektr.",
    "height" : 20.6,
    "parameterClassDe" : "Strahlung"
  }, {
    "start" : "2007-12-11",
    "end" : "2008-03-11",
    "model" : "SONIe Sonnenenergie-Sensor",
    "method" : "Sonnenscheindauer, elektr.",
    "height" : 20.6,
    "parameterClassDe" : "Strahlung"
  }, {
    "start" : "2006-12-05",
    "end" : "2007-12-10",
    "model" : "SONIe Sonnenenergie-Sensor",
    "method" : "Sonnenscheindauer, elektr.",
    "height" : 20.6,
    "parameterClassDe" : "Strahlung"
  }, {
    "start" : "2004-08-25",
    "end" : "2006-12-04",
    "model" : "SONIe Sonnenenergie-Sensor",
    "method" : "Sonnenscheindauer, elektr.",
    "height" : 28.5,
    "parameterClassDe" : "Strahlung"
  }, {
    "start" : "2004-08-02",
    "end" : "2004-08-24",
    "model" : "SONIe Sonnenenergie-Sensor",
    "method" : "Sonnenscheindauer, elektr.",
    "height" : 21.1,
    "parameterClassDe" : "Strahlung"
  }, {
    "start" : "2004-07-09",
    "end" : "2004-08-01",
    "model" : "SONIe Sonnenenergie-Sensor",
    "method" : "Sonnenscheindauer, elektr.",
    "height" : 21.1,
    "parameterClassDe" : "Strahlung"
  }, {
    "start" : "1997-07-08",
    "end" : "2004-07-08",
    "model" : "SONIe Sonnenenergie-Sensor",
    "method" : "Sonnenscheindauer, elektr.",
    "height" : 21.1,
    "parameterClassDe" : "Strahlung"
  }, {
    "start" : "1955-03-01",
    "end" : "1997-07-07",
    "model" : "Sonnenscheinschreiber nach Campbell-Stokes",
    "method" : "Sonnenscheinregistrierung, konv.",
    "height" : 23.0,
    "parameterClassDe" : "Strahlung"
  }, {
    "start" : "2006-12-05",
    "model" : "PT 100 (Erdboden)",
    "method" : "Temperaturmessung, elektr.",
    "height" : -0.5,
    "parameterClassDe" : "Temperatur (Erdboden)"
  }, {
    "start" : "2006-12-05",
    "model" : "PT 100 (Erdboden)",
    "method" : "Temperaturmessung, elektr.",
    "height" : -0.2,
    "parameterClassDe" : "Temperatur (Erdboden)"
  }, {
    "start" : "2006-12-05",
    "model" : "PT 100 (Erdboden)",
    "method" : "Temperaturmessung, elektr.",
    "height" : -0.1,
    "parameterClassDe" : "Temperatur (Erdboden)"
  }, {
    "start" : "2006-12-05",
    "model" : "PT 100 (Erdboden)",
    "method" : "Temperaturmessung, elektr.",
    "height" : -0.05,
    "parameterClassDe" : "Temperatur (Erdboden)"
  }, {
    "start" : "2006-12-05",
    "model" : "PT 100 (Erdboden)",
    "method" : "Temperaturmessung, elektr.",
    "height" : -1.0,
    "parameterClassDe" : "Temperatur (Erdboden)"
  }, {
    "start" : "1997-07-08",
    "end" : "2006-12-04",
    "model" : "PT 100 (Erdboden)",
    "method" : "Temperaturmessung, elektr.",
    "height" : -1.0,
    "parameterClassDe" : "Temperatur (Erdboden)"
  }, {
    "start" : "1997-07-08",
    "end" : "2006-12-04",
    "model" : "PT 100 (Erdboden)",
    "method" : "Temperaturmessung, elektr.",
    "height" : -0.5,
    "parameterClassDe" : "Temperatur (Erdboden)"
  }, {
    "start" : "1997-07-08",
    "end" : "2006-10-16",
    "model" : "Erdbodenthermometer",
    "method" : "Temperaturmessung, konv.",
    "height" : -0.05,
    "parameterClassDe" : "Temperatur (Erdboden)"
  }, {
    "start" : "1997-07-08",
    "end" : "2006-10-16",
    "model" : "Erdbodenthermometer",
    "method" : "Temperaturmessung, konv.",
    "height" : -0.5,
    "parameterClassDe" : "Temperatur (Erdboden)"
  }, {
    "start" : "1997-07-08",
    "end" : "2006-10-16",
    "model" : "Erdbodenthermometer",
    "method" : "Temperaturmessung, konv.",
    "height" : -0.2,
    "parameterClassDe" : "Temperatur (Erdboden)"
  }, {
    "start" : "1997-07-08",
    "end" : "2006-10-16",
    "model" : "Erdbodenthermometer",
    "method" : "Temperaturmessung, konv.",
    "height" : -0.1,
    "parameterClassDe" : "Temperatur (Erdboden)"
  }, {
    "start" : "1997-07-08",
    "end" : "2006-10-16",
    "model" : "Erdbodenthermometer",
    "method" : "Temperaturmessung, konv.",
    "height" : -1.0,
    "parameterClassDe" : "Temperatur (Erdboden)"
  }, {
    "start" : "2015-10-06",
    "model" : "PT 100 (Luft)",
    "method" : "Temperaturmessung, elektr.",
    "height" : 2.0,
    "parameterClassDe" : "Temperatur (Luft)"
  }, {
    "start" : "2015-10-06",
    "model" : "PT 100 (Luft)",
    "method" : "Temperaturmessung, elektr.",
    "height" : 0.05,
    "parameterClassDe" : "Temperatur (Luft)"
  }, {
    "start" : "2010-12-07",
    "end" : "2015-10-05",
    "model" : "PT 100 (Luft)",
    "method" : "Temperaturmessung, elektr.",
    "height" : 2.0,
    "parameterClassDe" : "Temperatur (Luft)"
  }, {
    "start" : "2010-12-07",
    "end" : "2015-10-05",
    "model" : "PT 100 (Luft)",
    "method" : "Temperaturmessung, elektr.",
    "height" : 0.05,
    "parameterClassDe" : "Temperatur (Luft)"
  }, {
    "start" : "2008-02-20",
    "end" : "2010-12-06",
    "model" : "PT 100 (Luft)",
    "method" : "Temperaturmessung, elektr.",
    "height" : 2.0,
    "parameterClassDe" : "Temperatur (Luft)"
  }, {
    "start" : "2008-02-20",
    "end" : "2010-12-06",
    "model" : "PT 100 (Luft)",
    "method" : "Temperaturmessung, elektr.",
    "height" : 0.05,
    "parameterClassDe" : "Temperatur (Luft)"
  }, {
    "start" : "2006-12-05",
    "end" : "2008-02-19",
    "model" : "PT 100 (Luft)",
    "method" : "Temperaturmessung, elektr.",
    "height" : 2.0,
    "parameterClassDe" : "Temperatur (Luft)"
  }, {
    "start" : "2006-12-05",
    "end" : "2008-02-19",
    "model" : "PT 100 (Luft)",
    "method" : "Temperaturmessung, elektr.",
    "height" : 0.05,
    "parameterClassDe" : "Temperatur (Luft)"
  }, {
    "start" : "1997-07-08",
    "end" : "2006-12-04",
    "model" : "Psychrometerthermometer (trocken)",
    "method" : "Temperaturmessung, konv.",
    "height" : 2.0,
    "parameterClassDe" : "Temperatur (Luft)"
  }, {
    "start" : "1997-07-08",
    "end" : "2006-12-04",
    "model" : "Psychrometerthermometer (feucht)",
    "method" : "Temperaturmessung, konv.",
    "height" : 2.0,
    "parameterClassDe" : "Temperatur (Luft)"
  }, {
    "start" : "1997-07-08",
    "end" : "2006-12-04",
    "model" : "Minimumthermometer",
    "method" : "Temperaturmessung, konv.",
    "height" : 2.2,
    "parameterClassDe" : "Temperatur (Luft)"
  }, {
    "start" : "1997-07-08",
    "end" : "2006-12-04",
    "model" : "Minimumthermometer",
    "method" : "Temperaturmessung, konv.",
    "height" : 0.05,
    "parameterClassDe" : "Temperatur (Luft)"
  }, {
    "start" : "1997-07-08",
    "end" : "2006-12-04",
    "model" : "PT 100 (Luft)",
    "method" : "Temperaturmessung, elektr.",
    "height" : 2.0,
    "parameterClassDe" : "Temperatur (Luft)"
  }, {
    "start" : "1997-07-08",
    "end" : "2006-12-04",
    "model" : "Maximumthermometer",
    "method" : "Temperaturmessung, konv.",
    "height" : 2.2,
    "parameterClassDe" : "Temperatur (Luft)"
  }, {
    "start" : "1954-05-28",
    "end" : "1997-07-07",
    "model" : "Maximumthermometer",
    "method" : "Temperaturmessung, konv.",
    "height" : 2.2,
    "parameterClassDe" : "Temperatur (Luft)"
  }, {
    "start" : "1954-05-28",
    "end" : "1997-07-07",
    "model" : "Psychrometerthermometer (trocken)",
    "method" : "Temperaturmessung, konv.",
    "height" : 2.0,
    "parameterClassDe" : "Temperatur (Luft)"
  }, {
    "start" : "1954-05-28",
    "end" : "1997-07-07",
    "model" : "Thermograph",
    "method" : "Temperaturmessung, konv.",
    "height" : 2.0,
    "parameterClassDe" : "Temperatur (Luft)"
  }, {
    "start" : "1955-04-01",
    "end" : "1997-07-07",
    "model" : "Minimumthermometer",
    "method" : "Temperaturmessung, konv.",
    "height" : 0.05,
    "parameterClassDe" : "Temperatur (Luft)"
  }, {
    "start" : "1954-05-28",
    "end" : "1997-07-07",
    "model" : "Minimumthermometer",
    "method" : "Temperaturmessung, konv.",
    "height" : 2.2,
    "parameterClassDe" : "Temperatur (Luft)"
  }, {
    "start" : "1997-07-08",
    "end" : "2006-12-04",
    "model" : "Thermohygrograph",
    "method" : "Temperatur- und Feuchtereg., konv.",
    "height" : 2.0,
    "parameterClassDe" : "Temperatur / Feuchte"
  }, {
    "start" : "1974-03-01",
    "end" : "1997-07-07",
    "model" : "Thermohygrograph",
    "method" : "Temperatur- und Feuchtereg., konv.",
    "height" : 2.0,
    "parameterClassDe" : "Temperatur / Feuchte"
  }, {
    "start" : "2017-10-10",
    "model" : "Windsensor Classic 4.3303",
    "method" : "Windmessung, elektr.",
    "height" : 28.5,
    "parameterClassDe" : "Wind"
  }, {
    "start" : "2017-10-10",
    "model" : "Windrichtungssensor Classic 4.3121",
    "method" : "Windmessung, elektr.",
    "height" : 28.5,
    "parameterClassDe" : "Wind"
  }, {
    "start" : "2017-04-13",
    "end" : "2017-10-09",
    "model" : "Windsensor Classic 4.3303",
    "method" : "Windmessung, elektr.",
    "height" : 28.5,
    "parameterClassDe" : "Wind"
  }, {
    "start" : "2017-04-13",
    "end" : "2017-10-09",
    "model" : "Windrichtungssensor Classic 4.3121",
    "method" : "Windmessung, elektr.",
    "height" : 28.5,
    "parameterClassDe" : "Wind"
  }, {
    "start" : "2015-02-24",
    "end" : "2017-04-12",
    "model" : "Windrichtungssensor Classic 4.3121",
    "method" : "Windmessung, elektr.",
    "height" : 28.5,
    "parameterClassDe" : "Wind"
  }, {
    "start" : "2015-02-24",
    "end" : "2017-04-12",
    "model" : "Windsensor Classic 4.3303",
    "method" : "Windmessung, elektr.",
    "height" : 28.5,
    "parameterClassDe" : "Wind"
  }, {
    "start" : "2012-06-18",
    "end" : "2015-02-23",
    "model" : "Windrichtungssensor Classic 4.3121",
    "method" : "Windmessung, elektr.",
    "height" : 28.5,
    "parameterClassDe" : "Wind"
  }, {
    "start" : "2012-06-18",
    "end" : "2015-02-23",
    "model" : "Windsensor Classic 4.3303",
    "method" : "Windmessung, elektr.",
    "height" : 28.5,
    "parameterClassDe" : "Wind"
  }, {
    "start" : "2010-06-10",
    "end" : "2012-06-17",
    "model" : "Windsensor Classic 4.3303",
    "method" : "Windmessung, elektr.",
    "height" : 28.5,
    "parameterClassDe" : "Wind"
  }, {
    "start" : "2010-06-10",
    "end" : "2012-06-17",
    "model" : "Windrichtungssensor Classic 4.3121",
    "method" : "Windmessung, elektr.",
    "height" : 28.5,
    "parameterClassDe" : "Wind"
  }, {
    "start" : "2008-02-20",
    "end" : "2010-06-09",
    "model" : "Windrichtungssensor Classic 4.3121",
    "method" : "Windmessung, elektr.",
    "height" : 28.5,
    "parameterClassDe" : "Wind"
  }, {
    "start" : "2008-02-20",
    "end" : "2010-06-09",
    "model" : "Windsensor Classic 4.3303",
    "method" : "Windmessung, elektr.",
    "height" : 28.5,
    "parameterClassDe" : "Wind"
  }, {
    "start" : "1997-07-08",
    "end" : "2008-02-19",
    "model" : "Windrichtungssensor Classic 4.3121",
    "method" : "Windmessung, elektr.",
    "height" : 28.5,
    "parameterClassDe" : "Wind"
  }, {
    "start" : "1997-07-08",
    "end" : "2008-02-19",
    "model" : "Windsensor Classic 4.3303",
    "method" : "Windmessung, elektr.",
    "height" : 28.5,
    "parameterClassDe" : "Wind"
  }, {
    "start" : "1959-04-01",
    "end" : "1997-07-07",
    "model" : "Universal-Windschreiber 90",
    "method" : "Windmessung, elektromechanisch",
    "height" : 28.0,
    "parameterClassDe" : "Wind"
  }, {
    "start" : "1954-05-28",
    "end" : "1959-03-31",
    "model" : "Windmessanlage Selsyn",
    "method" : "Windmessung, elektromechanisch",
    "height" : 28.0,
    "parameterClassDe" : "Wind"
  } ],
  "mezas" : [ {
    "start" : "1979-01-01",
    "end" : "2018-11-06",
    "desc" : "P :LUFTDRUCK_REDUZIERT",
    "parameterClassDe" : "etc."
  }, {
    "start" : "1985-01-01",
    "end" : "2018-11-06",
    "desc" : "NM :BEDECKUNGSGRAD",
    "parameterClassDe" : "etc."
  }, {
    "start" : "1985-01-01",
    "end" : "2018-10-01",
    "desc" : "MO_N :BEDECKUNGSGRAD",
    "parameterClassDe" : "etc."
  }, {
    "start" : "1979-01-01",
    "end" : "2018-11-06",
    "desc" : "N :GESAMT_BEDECKUNGSGRAD",
    "parameterClassDe" : "etc."
  }, {
    "start" : "1955-01-01",
    "end" : "2017-01-01",
    "desc" : "JA_TX :LUFTTEMPERATUR_MAXIMUM",
    "parameterClassDe" : "etc."
  }, {
    "start" : "1954-06-01",
    "end" : "2018-10-01",
    "desc" : "MO_TX :LUFTTEMPERATUR_MAXIMUM",
    "parameterClassDe" : "etc."
  }, {
    "start" : "1997-07-08",
    "end" : "2018-09-30",
    "desc" : "TE10 :ERDBODENTEMPERATUR",
    "parameterClassDe" : "etc."
  }, {
    "start" : "1985-01-01",
    "end" : "2018-10-01",
    "desc" : "MO_VPM :DAMPFDRUCK",
    "parameterClassDe" : "etc."
  }, {
    "start" : "1985-01-01",
    "end" : "2018-11-06",
    "desc" : "VPM :DAMPFDRUCK",
    "parameterClassDe" : "etc."
  }, {
    "start" : "1985-01-01",
    "end" : "2017-01-01",
    "desc" : "JA_VPM :DAMPFDRUCK",
    "parameterClassDe" : "etc."
  }, {
    "start" : "1985-03-01",
    "end" : "2018-10-01",
    "desc" : "MO_EBM :ERDBODENMINIMUM",
    "parameterClassDe" : "etc."
  }, {
    "start" : "1987-01-01",
    "end" : "2017-01-01",
    "desc" : "JA_EBM :ERDBODENMINIMUM",
    "parameterClassDe" : "etc."
  }, {
    "start" : "1985-01-01",
    "end" : "2018-11-06",
    "desc" : "TGK :LUFTTEMP_AM_ERDB_MINIMUM",
    "parameterClassDe" : "etc."
  }, {
    "start" : "1954-06-01",
    "end" : "2010-09-01",
    "desc" : "MO_NSHK :NEUSCHNEEHOEHE",
    "parameterClassDe" : "etc."
  }, {
    "start" : "1954-06-01",
    "end" : "2010-09-01",
    "desc" : "MO_NSH :NEUSCHNEEHOEHE",
    "parameterClassDe" : "etc."
  }, {
    "start" : "1955-01-01",
    "end" : "2008-01-01",
    "desc" : "JA_NSH :NEUSCHNEEHOEHE",
    "parameterClassDe" : "etc."
  }, {
    "start" : "2001-04-03",
    "end" : "2018-11-07",
    "desc" : "WRTR :NIEDERSCHLAGSFORM",
    "parameterClassDe" : "etc."
  }, {
    "start" : "1997-07-07",
    "end" : "2018-11-07",
    "desc" : "RS_IND :NIEDERSCHLAG_GEFALLEN_IND",
    "parameterClassDe" : "etc."
  }, {
    "start" : "1954-06-01",
    "end" : "2018-11-06",
    "desc" : "RSKF :NIEDERSCHLAGSHOEHE_IND",
    "parameterClassDe" : "etc."
  }, {
    "start" : "1954-06-01",
    "end" : "2018-11-06",
    "desc" : "RSF :NIEDERSCHLAGSHOEHE_IND",
    "parameterClassDe" : "etc."
  }, {
    "start" : "1955-01-01",
    "end" : "2017-01-01",
    "desc" : "JA_TN :LUFTTEMPERATUR_MINIMUM",
    "parameterClassDe" : "etc."
  }, {
    "start" : "1954-06-01",
    "end" : "2018-10-01",
    "desc" : "MO_TN :LUFTTEMPERATUR_MINIMUM",
    "parameterClassDe" : "etc."
  }, {
    "start" : "1985-01-01",
    "end" : "2018-11-06",
    "desc" : "FX :WINDSPITZE_MAXIMUM",
    "parameterClassDe" : "etc."
  }, {
    "start" : "1985-01-01",
    "end" : "2018-11-06",
    "desc" : "FXK :WINDSPITZE_MAXIMUM",
    "parameterClassDe" : "etc."
  }, {
    "start" : "1985-01-01",
    "end" : "2018-11-06",
    "desc" : "UPM :REL_FEUCHTE",
    "parameterClassDe" : "Feuchte"
  }, {
    "start" : "1997-07-01",
    "end" : "2018-11-06",
    "desc" : "RF_TU :REL_FEUCHTE",
    "parameterClassDe" : "Feuchte"
  }, {
    "start" : "1990-07-01",
    "end" : "2018-11-06",
    "desc" : "UR :REL_FEUCHTE_REGISTRIERUNG",
    "parameterClassDe" : "Feuchte"
  }, {
    "start" : "1990-07-01",
    "end" : "2018-11-06",
    "desc" : "UU :REL_FEUCHTE",
    "parameterClassDe" : "Feuchte"
  }, {
    "start" : "1985-01-01",
    "end" : "2017-01-01",
    "desc" : "JA_RF :REL_FEUCHTE",
    "parameterClassDe" : "Feuchte"
  }, {
    "start" : "1985-01-01",
    "end" : "2018-10-01",
    "desc" : "MO_RF :REL_FEUCHTE",
    "parameterClassDe" : "Feuchte"
  }, {
    "start" : "1979-01-01",
    "end" : "2018-11-06",
    "desc" : "TD :TAUPUNKTTEMPERATUR",
    "parameterClassDe" : "Feuchte"
  }, {
    "start" : "1985-01-01",
    "end" : "2018-11-06",
    "desc" : "PM :LUFTDRUCK_STATIONSHOEHE",
    "parameterClassDe" : "Luftdruck"
  }, {
    "start" : "1985-01-01",
    "end" : "2018-10-01",
    "desc" : "MO_P0 :LUFTDRUCK_STATIONSHOEHE",
    "parameterClassDe" : "Luftdruck"
  }, {
    "start" : "1985-01-01",
    "end" : "2017-01-01",
    "desc" : "JA_P0 :LUFTDRUCK_STATIONSHOEHE",
    "parameterClassDe" : "Luftdruck"
  }, {
    "start" : "1987-11-01",
    "end" : "2018-11-06",
    "desc" : "P0 :LUFTDRUCK_STATIONSHOEHE",
    "parameterClassDe" : "Luftdruck"
  }, {
    "start" : "1954-06-01",
    "end" : "2018-04-01",
    "desc" : "MO_SH :SCHNEEHOEHE",
    "parameterClassDe" : "Niederschlag"
  }, {
    "start" : "1990-12-19",
    "end" : "2000-01-29",
    "desc" : "ASH :HOEHE_AUSGESTOCHENER_SCHNEE",
    "parameterClassDe" : "Niederschlag"
  }, {
    "start" : "1990-01-01",
    "end" : "2018-11-06",
    "desc" : "SH :SCHNEEHOEHE",
    "parameterClassDe" : "Niederschlag"
  }, {
    "start" : "1954-06-01",
    "end" : "2018-11-06",
    "desc" : "SH_TAG :SCHNEEHOEHE",
    "parameterClassDe" : "Niederschlag"
  }, {
    "start" : "1955-01-01",
    "end" : "2014-01-01",
    "desc" : "JA_SH_S :SCHNEEHOEHE",
    "parameterClassDe" : "Niederschlag"
  }, {
    "start" : "1954-06-01",
    "end" : "2018-11-06",
    "desc" : "SHK_TAG :SCHNEEHOEHE",
    "parameterClassDe" : "Niederschlag"
  }, {
    "start" : "1954-06-01",
    "end" : "2018-04-01",
    "desc" : "MO_SHK :SCHNEEHOEHE",
    "parameterClassDe" : "Niederschlag"
  }, {
    "start" : "1954-06-01",
    "end" : "2018-04-01",
    "desc" : "MO_SH_S :SCHNEEHOEHE",
    "parameterClassDe" : "Niederschlag"
  }, {
    "start" : "1955-01-01",
    "end" : "2014-01-01",
    "desc" : "JA_SH :SCHNEEHOEHE",
    "parameterClassDe" : "Niederschlag"
  }, {
    "start" : "1954-06-01",
    "end" : "2018-11-06",
    "desc" : "RSK :NIEDERSCHLAGSHOEHE",
    "parameterClassDe" : "Niederschlag"
  }, {
    "start" : "1954-06-01",
    "end" : "2018-11-06",
    "desc" : "RS :NIEDERSCHLAGSHOEHE",
    "parameterClassDe" : "Niederschlag"
  }, {
    "start" : "1954-06-01",
    "end" : "2018-10-01",
    "desc" : "MO_RR :NIEDERSCHLAGSHOEHE",
    "parameterClassDe" : "Niederschlag"
  }, {
    "start" : "1997-07-07",
    "end" : "2018-11-07",
    "desc" : "R1 :NIEDERSCHLAGSHOEHE",
    "parameterClassDe" : "Niederschlag"
  }, {
    "start" : "1955-01-01",
    "end" : "2017-01-01",
    "desc" : "JA_RR :NIEDERSCHLAGSHOEHE",
    "parameterClassDe" : "Niederschlag"
  }, {
    "start" : "1999-01-30",
    "end" : "2010-03-12",
    "desc" : "RW :WASSERAEQUIV_PRO_CM",
    "parameterClassDe" : "Niederschlag"
  }, {
    "start" : "1990-07-24",
    "end" : "2000-01-29",
    "desc" : "WAAS :WASSERAEQUIV_SCHNEE",
    "parameterClassDe" : "Niederschlag"
  }, {
    "start" : "2002-03-11",
    "end" : "2003-04-24",
    "desc" : "FD :DIF_HIMMELSSTRAHLUNG_JOULE",
    "parameterClassDe" : "Strahlung"
  }, {
    "start" : "1985-01-01",
    "end" : "2018-11-06",
    "desc" : "SD :SONNENSCHEINDAUER",
    "parameterClassDe" : "Strahlung"
  }, {
    "start" : "1956-01-01",
    "end" : "2017-01-01",
    "desc" : "JA_SD_S :SONNENSCHEINDAUER",
    "parameterClassDe" : "Strahlung"
  }, {
    "start" : "1956-01-01",
    "end" : "2017-01-01",
    "desc" : "JA_SD :SONNENSCHEINDAUER",
    "parameterClassDe" : "Strahlung"
  }, {
    "start" : "1955-04-01",
    "end" : "2018-10-01",
    "desc" : "MO_SD_S :SONNENSCHEINDAUER",
    "parameterClassDe" : "Strahlung"
  }, {
    "start" : "1955-04-01",
    "end" : "2018-10-01",
    "desc" : "MO_SD :SONNENSCHEINDAUER",
    "parameterClassDe" : "Strahlung"
  }, {
    "start" : "1992-09-11",
    "end" : "2018-11-06",
    "desc" : "SD_SY :SONNENSCHEINDAUER",
    "parameterClassDe" : "Strahlung"
  }, {
    "start" : "1955-04-01",
    "end" : "2018-11-06",
    "desc" : "SDK :SONNENSCHEINDAUER",
    "parameterClassDe" : "Strahlung"
  }, {
    "start" : "2001-12-03",
    "end" : "2008-11-24",
    "desc" : "FG :GLOBALSTRAHLUNG_JOULE",
    "parameterClassDe" : "Strahlung"
  }, {
    "start" : "1990-09-25",
    "end" : "2018-11-06",
    "desc" : "TT_ERD :LUFTTEMP_AM_ERDB",
    "parameterClassDe" : "Temperatur (Erdboden)"
  }, {
    "start" : "1997-07-08",
    "end" : "2018-11-06",
    "desc" : "TE50M :ERDBODENTEMPERATUR",
    "parameterClassDe" : "Temperatur (Erdboden)"
  }, {
    "start" : "1997-07-08",
    "end" : "2018-09-30",
    "desc" : "TE50 :ERDBODENTEMPERATUR",
    "parameterClassDe" : "Temperatur (Erdboden)"
  }, {
    "start" : "1997-07-08",
    "end" : "2018-11-06",
    "desc" : "TE10M :ERDBODENTEMPERATUR",
    "parameterClassDe" : "Temperatur (Erdboden)"
  }, {
    "start" : "2000-11-17",
    "end" : "2000-11-17",
    "desc" : "TE02 :ERDBODENTEMPERATUR",
    "parameterClassDe" : "Temperatur (Erdboden)"
  }, {
    "start" : "1997-07-08",
    "end" : "2018-09-30",
    "desc" : "TE100 :ERDBODENTEMPERATUR",
    "parameterClassDe" : "Temperatur (Erdboden)"
  }, {
    "start" : "1997-07-08",
    "end" : "2018-11-06",
    "desc" : "TE20M :ERDBODENTEMPERATUR",
    "parameterClassDe" : "Temperatur (Erdboden)"
  }, {
    "start" : "1997-07-08",
    "end" : "2018-09-30",
    "desc" : "TE20 :ERDBODENTEMPERATUR",
    "parameterClassDe" : "Temperatur (Erdboden)"
  }, {
    "start" : "1997-07-08",
    "end" : "2018-11-06",
    "desc" : "TE05M :ERDBODENTEMPERATUR",
    "parameterClassDe" : "Temperatur (Erdboden)"
  }, {
    "start" : "1997-07-08",
    "end" : "2018-09-30",
    "desc" : "TE05 :ERDBODENTEMPERATUR",
    "parameterClassDe" : "Temperatur (Erdboden)"
  }, {
    "start" : "1954-06-01",
    "end" : "2018-11-06",
    "desc" : "TXK :LUFTTEMPERATUR_MAXIMUM",
    "parameterClassDe" : "Temperatur (Luft)"
  }, {
    "start" : "1955-01-01",
    "end" : "2017-01-01",
    "desc" : "JA_TT :LUFTTEMPERATUR",
    "parameterClassDe" : "Temperatur (Luft)"
  }, {
    "start" : "1997-07-01",
    "end" : "2018-11-06",
    "desc" : "TT_TU :LUFTTEMPERATUR",
    "parameterClassDe" : "Temperatur (Luft)"
  }, {
    "start" : "1979-01-01",
    "end" : "2018-11-06",
    "desc" : "TT :LUFTTEMPERATUR",
    "parameterClassDe" : "Temperatur (Luft)"
  }, {
    "start" : "1954-06-01",
    "end" : "2018-10-01",
    "desc" : "MO_TT :LUFTTEMPERATUR",
    "parameterClassDe" : "Temperatur (Luft)"
  }, {
    "start" : "1954-06-01",
    "end" : "2018-11-06",
    "desc" : "TMK :LUFTTEMPERATUR",
    "parameterClassDe" : "Temperatur (Luft)"
  }, {
    "start" : "1954-06-01",
    "end" : "2018-11-06",
    "desc" : "TNK :LUFTTEMPERATUR_MINIMUM",
    "parameterClassDe" : "Temperatur (Luft)"
  }, {
    "start" : "1985-01-01",
    "end" : "2018-11-06",
    "desc" : "UPM :REL_FEUCHTE",
    "parameterClassDe" : "Temperatur / Feuchte"
  }, {
    "start" : "1997-07-01",
    "end" : "2018-11-06",
    "desc" : "RF_TU :REL_FEUCHTE",
    "parameterClassDe" : "Temperatur / Feuchte"
  }, {
    "start" : "1990-07-01",
    "end" : "2018-11-06",
    "desc" : "UR :REL_FEUCHTE_REGISTRIERUNG",
    "parameterClassDe" : "Temperatur / Feuchte"
  }, {
    "start" : "1990-07-01",
    "end" : "2018-11-06",
    "desc" : "UU :REL_FEUCHTE",
    "parameterClassDe" : "Temperatur / Feuchte"
  }, {
    "start" : "1985-01-01",
    "end" : "2017-01-01",
    "desc" : "JA_RF :REL_FEUCHTE",
    "parameterClassDe" : "Temperatur / Feuchte"
  }, {
    "start" : "1985-01-01",
    "end" : "2018-10-01",
    "desc" : "MO_RF :REL_FEUCHTE",
    "parameterClassDe" : "Temperatur / Feuchte"
  }, {
    "start" : "1955-01-01",
    "end" : "2017-01-01",
    "desc" : "JA_TT :LUFTTEMPERATUR",
    "parameterClassDe" : "Temperatur / Feuchte"
  }, {
    "start" : "1997-07-01",
    "end" : "2018-11-06",
    "desc" : "TT_TU :LUFTTEMPERATUR",
    "parameterClassDe" : "Temperatur / Feuchte"
  }, {
    "start" : "1979-01-01",
    "end" : "2018-11-06",
    "desc" : "TT :LUFTTEMPERATUR",
    "parameterClassDe" : "Temperatur / Feuchte"
  }, {
    "start" : "1954-06-01",
    "end" : "2018-10-01",
    "desc" : "MO_TT :LUFTTEMPERATUR",
    "parameterClassDe" : "Temperatur / Feuchte"
  }, {
    "start" : "1954-06-01",
    "end" : "2018-11-06",
    "desc" : "TMK :LUFTTEMPERATUR",
    "parameterClassDe" : "Temperatur / Feuchte"
  }, {
    "start" : "1979-01-01",
    "end" : "2018-11-06",
    "desc" : "DD :WINDRICHTUNG",
    "parameterClassDe" : "Wind"
  }, {
    "start" : "1985-01-01",
    "end" : "2018-11-06",
    "desc" : "D :WINDRICHTUNG",
    "parameterClassDe" : "Wind"
  }, {
    "start" : "1985-01-01",
    "end" : "2018-11-06",
    "desc" : "F :WINDGESCHWINDIGKEIT",
    "parameterClassDe" : "Wind"
  }, {
    "start" : "1985-01-01",
    "end" : "2018-11-06",
    "desc" : "FM :WINDGESCHWINDIGKEIT",
    "parameterClassDe" : "Wind"
  }, {
    "start" : "1979-01-01",
    "end" : "2018-11-06",
    "desc" : "FF :WINDGESCHWINDIGKEIT",
    "parameterClassDe" : "Wind"
  }, {
    "start" : "1985-01-01",
    "end" : "2018-10-01",
    "desc" : "MO_FK :WINDSTAERKE",
    "parameterClassDe" : "Wind"
  }, {
    "start" : "1985-01-01",
    "end" : "2017-01-01",
    "desc" : "JA_FK :WINDSTAERKE",
    "parameterClassDe" : "Wind"
  }, {
    "start" : "1985-01-01",
    "end" : "2018-11-06",
    "desc" : "FMK :WINDSTAERKE",
    "parameterClassDe" : "Wind"
  } ]
}